%YAML 1.1
%TAG !u! tag:unity3d.com,2011:
--- !u!74 &7400000
AnimationClip:
  m_ObjectHideFlags: 0
  m_CorrespondingSourceObject: {fileID: 0}
  m_PrefabInstance: {fileID: 0}
  m_PrefabAsset: {fileID: 0}
  m_Name: Walk_FrontW1Plates
  serializedVersion: 6
  m_Legacy: 0
  m_Compressed: 0
  m_UseHighQualityCurve: 1
  m_RotationCurves: []
  m_CompressedRotationCurves: []
  m_EulerCurves: []
  m_PositionCurves: []
  m_ScaleCurves: []
  m_FloatCurves: []
  m_PPtrCurves:
  - curve:
    - time: 0
      value: {fileID: 21300000, guid: 878f0c76a07912c448cb7264e4401b42, type: 3}
    - time: 0.04
      value: {fileID: 21300000, guid: d766cc354a0ea1f4b855590c8cbc3aac, type: 3}
    - time: 0.08
      value: {fileID: 21300000, guid: 481b4d3342933ee4a8d278dd3140622f, type: 3}
    - time: 0.12
      value: {fileID: 21300000, guid: 7b7eafcd850b6514d8cd0d22538f5ab2, type: 3}
    - time: 0.16
      value: {fileID: 21300000, guid: 6d45ebe56fa132e48bf00e221d22bc33, type: 3}
    - time: 0.2
      value: {fileID: 21300000, guid: d0bdd7297d9d2154da45aaf11cd0d8d3, type: 3}
    - time: 0.24
      value: {fileID: 21300000, guid: ca6ad186933b20844849d62d0bb39a0d, type: 3}
    - time: 0.28
      value: {fileID: 21300000, guid: ce6c15d519e01fb45ae77a16ac142e1f, type: 3}
    - time: 0.32
      value: {fileID: 21300000, guid: 8005294074afe9445a6814582efb187b, type: 3}
    - time: 0.36
      value: {fileID: 21300000, guid: 36fa6bbf51464464b84f1323827337b2, type: 3}
    - time: 0.4
      value: {fileID: 21300000, guid: 8b560c1ed534a0a4da05650cb5a8289c, type: 3}
    - time: 0.44
      value: {fileID: 21300000, guid: bcba74ea85646ae46bb3ea60504bd9ad, type: 3}
    - time: 0.48
      value: {fileID: 21300000, guid: 290164d40f751ae4faced213b8d894b4, type: 3}
    - time: 0.52
      value: {fileID: 21300000, guid: a33c748a3032e37468cf4c0a6de7a591, type: 3}
    - time: 0.56
      value: {fileID: 21300000, guid: f88788e04224a4845ba48a0e688b26c3, type: 3}
    - time: 0.6
      value: {fileID: 21300000, guid: fd6ea9a471769ac44a7925b12b93564e, type: 3}
    - time: 0.64
      value: {fileID: 21300000, guid: 44df3023cce5fe74ca32d44a63dc121f, type: 3}
    - time: 0.68
      value: {fileID: 21300000, guid: bca4768a6cbf68a488cfaa204bab557a, type: 3}
    - time: 0.72
      value: {fileID: 21300000, guid: a4c7623013087694299cdecfd016aed8, type: 3}
    - time: 0.76
      value: {fileID: 21300000, guid: 1bfe309c5311c7249beb78c52f8166d2, type: 3}
    attribute: m_Sprite
    path: 
    classID: 212
    script: {fileID: 0}
  m_SampleRate: 25
  m_WrapMode: 0
  m_Bounds:
    m_Center: {x: 0, y: 0, z: 0}
    m_Extent: {x: 0, y: 0, z: 0}
  m_ClipBindingConstant:
    genericBindings:
    - serializedVersion: 2
      path: 0
      attribute: 0
      script: {fileID: 0}
      typeID: 212
      customType: 23
      isPPtrCurve: 1
    pptrCurveMapping:
    - {fileID: 21300000, guid: 878f0c76a07912c448cb7264e4401b42, type: 3}
    - {fileID: 21300000, guid: d766cc354a0ea1f4b855590c8cbc3aac, type: 3}
    - {fileID: 21300000, guid: 481b4d3342933ee4a8d278dd3140622f, type: 3}
    - {fileID: 21300000, guid: 7b7eafcd850b6514d8cd0d22538f5ab2, type: 3}
    - {fileID: 21300000, guid: 6d45ebe56fa132e48bf00e221d22bc33, type: 3}
    - {fileID: 21300000, guid: d0bdd7297d9d2154da45aaf11cd0d8d3, type: 3}
    - {fileID: 21300000, guid: ca6ad186933b20844849d62d0bb39a0d, type: 3}
    - {fileID: 21300000, guid: ce6c15d519e01fb45ae77a16ac142e1f, type: 3}
    - {fileID: 21300000, guid: 8005294074afe9445a6814582efb187b, type: 3}
    - {fileID: 21300000, guid: 36fa6bbf51464464b84f1323827337b2, type: 3}
    - {fileID: 21300000, guid: 8b560c1ed534a0a4da05650cb5a8289c, type: 3}
    - {fileID: 21300000, guid: bcba74ea85646ae46bb3ea60504bd9ad, type: 3}
    - {fileID: 21300000, guid: 290164d40f751ae4faced213b8d894b4, type: 3}
    - {fileID: 21300000, guid: a33c748a3032e37468cf4c0a6de7a591, type: 3}
    - {fileID: 21300000, guid: f88788e04224a4845ba48a0e688b26c3, type: 3}
    - {fileID: 21300000, guid: fd6ea9a471769ac44a7925b12b93564e, type: 3}
    - {fileID: 21300000, guid: 44df3023cce5fe74ca32d44a63dc121f, type: 3}
    - {fileID: 21300000, guid: bca4768a6cbf68a488cfaa204bab557a, type: 3}
    - {fileID: 21300000, guid: a4c7623013087694299cdecfd016aed8, type: 3}
    - {fileID: 21300000, guid: 1bfe309c5311c7249beb78c52f8166d2, type: 3}
  m_AnimationClipSettings:
    serializedVersion: 2
    m_AdditiveReferencePoseClip: {fileID: 0}
    m_AdditiveReferencePoseTime: 0
    m_StartTime: 0
    m_StopTime: 0.8
    m_OrientationOffsetY: 0
    m_Level: 0
    m_CycleOffset: 0
    m_HasAdditiveReferencePose: 0
    m_LoopTime: 1
    m_LoopBlend: 0
    m_LoopBlendOrientation: 0
    m_LoopBlendPositionY: 0
    m_LoopBlendPositionXZ: 0
    m_KeepOriginalOrientation: 0
    m_KeepOriginalPositionY: 1
    m_KeepOriginalPositionXZ: 0
    m_HeightFromFeet: 0
    m_Mirror: 0
  m_EditorCurves: []
  m_EulerEditorCurves: []
  m_HasGenericRootTransform: 0
  m_HasMotionFloatCurves: 0
  m_Events: []
