%YAML 1.1
%TAG !u! tag:unity3d.com,2011:
--- !u!74 &7400000
AnimationClip:
  m_ObjectHideFlags: 0
  m_CorrespondingSourceObject: {fileID: 0}
  m_PrefabInstance: {fileID: 0}
  m_PrefabAsset: {fileID: 0}
  m_Name: Walk_SideWPlate
  serializedVersion: 6
  m_Legacy: 0
  m_Compressed: 0
  m_UseHighQualityCurve: 1
  m_RotationCurves: []
  m_CompressedRotationCurves: []
  m_EulerCurves: []
  m_PositionCurves: []
  m_ScaleCurves: []
  m_FloatCurves: []
  m_PPtrCurves:
  - curve:
    - time: 0
      value: {fileID: 21300000, guid: 04fdcca681ae1f74da03e710854845c1, type: 3}
    - time: 0.04
      value: {fileID: 21300000, guid: c53a9250246407648b36f83f70b4e024, type: 3}
    - time: 0.08
      value: {fileID: 21300000, guid: cd3aebab9f1ce4c4aac41bd601eb5e4c, type: 3}
    - time: 0.12
      value: {fileID: 21300000, guid: c52847a5c889db24388062f270cfc4c0, type: 3}
    - time: 0.16
      value: {fileID: 21300000, guid: 2dc3846c7c4412440b7e8fe9746a24a4, type: 3}
    - time: 0.2
      value: {fileID: 21300000, guid: d967836ec1a536549801d7622bee914c, type: 3}
    - time: 0.24
      value: {fileID: 21300000, guid: 248509a66f0ee8047b50d31563b641bd, type: 3}
    - time: 0.28
      value: {fileID: 21300000, guid: 5266a4241eb667749850d4365ac2da92, type: 3}
    - time: 0.32
      value: {fileID: 21300000, guid: 500e9b80ea0539a41bdae4c88d6184f1, type: 3}
    - time: 0.36
      value: {fileID: 21300000, guid: fbb2e70a3bdb71a47acb1b2520fb3ac1, type: 3}
    - time: 0.4
      value: {fileID: 21300000, guid: 181a8e4af5b6c9e43bbc827ea79506bb, type: 3}
    - time: 0.44
      value: {fileID: 21300000, guid: 78f2da894f69ac5468e79c8509284357, type: 3}
    - time: 0.48
      value: {fileID: 21300000, guid: cae32b45796142949ac38831a6bab8be, type: 3}
    - time: 0.52
      value: {fileID: 21300000, guid: 1644d32c38a6f9447b3b04b669b12831, type: 3}
    - time: 0.56
      value: {fileID: 21300000, guid: 46acae290942e53448f615b1fbfcb6bf, type: 3}
    - time: 0.6
      value: {fileID: 21300000, guid: be7b2613b87261744bdee02ee0cdbde6, type: 3}
    - time: 0.64
      value: {fileID: 21300000, guid: da7c82a686ff871489f785de38ac9acc, type: 3}
    - time: 0.68
      value: {fileID: 21300000, guid: 3994144188f06ce48bd7d172dd0f84d8, type: 3}
    - time: 0.72
      value: {fileID: 21300000, guid: b3063eb27ce3b964a94332fb17b4350e, type: 3}
    - time: 0.76
      value: {fileID: 21300000, guid: abbc6fdabe51c9e43ae162eeb1f08def, type: 3}
    attribute: m_Sprite
    path: 
    classID: 212
    script: {fileID: 0}
  m_SampleRate: 25
  m_WrapMode: 0
  m_Bounds:
    m_Center: {x: 0, y: 0, z: 0}
    m_Extent: {x: 0, y: 0, z: 0}
  m_ClipBindingConstant:
    genericBindings:
    - serializedVersion: 2
      path: 0
      attribute: 0
      script: {fileID: 0}
      typeID: 212
      customType: 23
      isPPtrCurve: 1
    pptrCurveMapping:
    - {fileID: 21300000, guid: 04fdcca681ae1f74da03e710854845c1, type: 3}
    - {fileID: 21300000, guid: c53a9250246407648b36f83f70b4e024, type: 3}
    - {fileID: 21300000, guid: cd3aebab9f1ce4c4aac41bd601eb5e4c, type: 3}
    - {fileID: 21300000, guid: c52847a5c889db24388062f270cfc4c0, type: 3}
    - {fileID: 21300000, guid: 2dc3846c7c4412440b7e8fe9746a24a4, type: 3}
    - {fileID: 21300000, guid: d967836ec1a536549801d7622bee914c, type: 3}
    - {fileID: 21300000, guid: 248509a66f0ee8047b50d31563b641bd, type: 3}
    - {fileID: 21300000, guid: 5266a4241eb667749850d4365ac2da92, type: 3}
    - {fileID: 21300000, guid: 500e9b80ea0539a41bdae4c88d6184f1, type: 3}
    - {fileID: 21300000, guid: fbb2e70a3bdb71a47acb1b2520fb3ac1, type: 3}
    - {fileID: 21300000, guid: 181a8e4af5b6c9e43bbc827ea79506bb, type: 3}
    - {fileID: 21300000, guid: 78f2da894f69ac5468e79c8509284357, type: 3}
    - {fileID: 21300000, guid: cae32b45796142949ac38831a6bab8be, type: 3}
    - {fileID: 21300000, guid: 1644d32c38a6f9447b3b04b669b12831, type: 3}
    - {fileID: 21300000, guid: 46acae290942e53448f615b1fbfcb6bf, type: 3}
    - {fileID: 21300000, guid: be7b2613b87261744bdee02ee0cdbde6, type: 3}
    - {fileID: 21300000, guid: da7c82a686ff871489f785de38ac9acc, type: 3}
    - {fileID: 21300000, guid: 3994144188f06ce48bd7d172dd0f84d8, type: 3}
    - {fileID: 21300000, guid: b3063eb27ce3b964a94332fb17b4350e, type: 3}
    - {fileID: 21300000, guid: abbc6fdabe51c9e43ae162eeb1f08def, type: 3}
  m_AnimationClipSettings:
    serializedVersion: 2
    m_AdditiveReferencePoseClip: {fileID: 0}
    m_AdditiveReferencePoseTime: 0
    m_StartTime: 0
    m_StopTime: 0.8
    m_OrientationOffsetY: 0
    m_Level: 0
    m_CycleOffset: 0
    m_HasAdditiveReferencePose: 0
    m_LoopTime: 1
    m_LoopBlend: 0
    m_LoopBlendOrientation: 0
    m_LoopBlendPositionY: 0
    m_LoopBlendPositionXZ: 0
    m_KeepOriginalOrientation: 0
    m_KeepOriginalPositionY: 1
    m_KeepOriginalPositionXZ: 0
    m_HeightFromFeet: 0
    m_Mirror: 0
  m_EditorCurves: []
  m_EulerEditorCurves: []
  m_HasGenericRootTransform: 0
  m_HasMotionFloatCurves: 0
  m_Events: []
