%YAML 1.1
%TAG !u! tag:unity3d.com,2011:
--- !u!74 &7400000
AnimationClip:
  m_ObjectHideFlags: 0
  m_CorrespondingSourceObject: {fileID: 0}
  m_PrefabInstance: {fileID: 0}
  m_PrefabAsset: {fileID: 0}
  m_Name: Walk_Right
  serializedVersion: 6
  m_Legacy: 0
  m_Compressed: 0
  m_UseHighQualityCurve: 1
  m_RotationCurves: []
  m_CompressedRotationCurves: []
  m_EulerCurves: []
  m_PositionCurves: []
  m_ScaleCurves: []
  m_FloatCurves: []
  m_PPtrCurves:
  - curve:
    - time: 0
      value: {fileID: 21300000, guid: df8e05b01fba7104a9ac4ff03c3857ef, type: 3}
    - time: 0.04
      value: {fileID: 21300000, guid: c9e941a79b8cde34d8dbfa828e3a2895, type: 3}
    - time: 0.08
      value: {fileID: 21300000, guid: 53fa4fb466bc13249a82b93c985c1862, type: 3}
    - time: 0.12
      value: {fileID: 21300000, guid: 0e847e5f2e8151f4dbe9e378569e8502, type: 3}
    - time: 0.16
      value: {fileID: 21300000, guid: 80269b33420741548949239c05a0686c, type: 3}
    - time: 0.2
      value: {fileID: 21300000, guid: 53f5d7136b0aec64798c4cf7f570cdb7, type: 3}
    - time: 0.24
      value: {fileID: 21300000, guid: 7aaf43803e16e884098d0d56e82d4b2a, type: 3}
    - time: 0.28
      value: {fileID: 21300000, guid: 3414508b12a853b44b0ae0fe5996c1c1, type: 3}
    - time: 0.32
      value: {fileID: 21300000, guid: 6c60310f0c048ac418ee3daab2bbae9c, type: 3}
    - time: 0.36
      value: {fileID: 21300000, guid: 4f2b7c881fbc5154d97bc6d9478b8a4b, type: 3}
    - time: 0.4
      value: {fileID: 21300000, guid: e92db4fce1ef64a4e888081d0cb22e84, type: 3}
    - time: 0.44
      value: {fileID: 21300000, guid: 68ba74fbd07c2254891e85b84d2e8577, type: 3}
    - time: 0.48
      value: {fileID: 21300000, guid: 4a51b361506295a49bca09003939df5d, type: 3}
    - time: 0.52
      value: {fileID: 21300000, guid: 19f70077090344349acec07fd563e73d, type: 3}
    - time: 0.56
      value: {fileID: 21300000, guid: aedb86bc32a7e704a855b01e75022d8a, type: 3}
    - time: 0.6
      value: {fileID: 21300000, guid: fbb885514481fe9479bd891fbbc44c23, type: 3}
    - time: 0.64
      value: {fileID: 21300000, guid: 185feff1e889a4e4a9725ee68348af6f, type: 3}
    - time: 0.68
      value: {fileID: 21300000, guid: 2f9debeaeefd36f43a75d924429fd876, type: 3}
    - time: 0.72
      value: {fileID: 21300000, guid: d4259ef705a8be1428f3d5dee7a14144, type: 3}
    - time: 0.76
      value: {fileID: 21300000, guid: 7f07d37da1d569a4dac19d1911a5dac0, type: 3}
    attribute: m_Sprite
    path: 
    classID: 212
    script: {fileID: 0}
  m_SampleRate: 25
  m_WrapMode: 0
  m_Bounds:
    m_Center: {x: 0, y: 0, z: 0}
    m_Extent: {x: 0, y: 0, z: 0}
  m_ClipBindingConstant:
    genericBindings:
    - serializedVersion: 2
      path: 0
      attribute: 0
      script: {fileID: 0}
      typeID: 212
      customType: 23
      isPPtrCurve: 1
    pptrCurveMapping:
    - {fileID: 21300000, guid: df8e05b01fba7104a9ac4ff03c3857ef, type: 3}
    - {fileID: 21300000, guid: c9e941a79b8cde34d8dbfa828e3a2895, type: 3}
    - {fileID: 21300000, guid: 53fa4fb466bc13249a82b93c985c1862, type: 3}
    - {fileID: 21300000, guid: 0e847e5f2e8151f4dbe9e378569e8502, type: 3}
    - {fileID: 21300000, guid: 80269b33420741548949239c05a0686c, type: 3}
    - {fileID: 21300000, guid: 53f5d7136b0aec64798c4cf7f570cdb7, type: 3}
    - {fileID: 21300000, guid: 7aaf43803e16e884098d0d56e82d4b2a, type: 3}
    - {fileID: 21300000, guid: 3414508b12a853b44b0ae0fe5996c1c1, type: 3}
    - {fileID: 21300000, guid: 6c60310f0c048ac418ee3daab2bbae9c, type: 3}
    - {fileID: 21300000, guid: 4f2b7c881fbc5154d97bc6d9478b8a4b, type: 3}
    - {fileID: 21300000, guid: e92db4fce1ef64a4e888081d0cb22e84, type: 3}
    - {fileID: 21300000, guid: 68ba74fbd07c2254891e85b84d2e8577, type: 3}
    - {fileID: 21300000, guid: 4a51b361506295a49bca09003939df5d, type: 3}
    - {fileID: 21300000, guid: 19f70077090344349acec07fd563e73d, type: 3}
    - {fileID: 21300000, guid: aedb86bc32a7e704a855b01e75022d8a, type: 3}
    - {fileID: 21300000, guid: fbb885514481fe9479bd891fbbc44c23, type: 3}
    - {fileID: 21300000, guid: 185feff1e889a4e4a9725ee68348af6f, type: 3}
    - {fileID: 21300000, guid: 2f9debeaeefd36f43a75d924429fd876, type: 3}
    - {fileID: 21300000, guid: d4259ef705a8be1428f3d5dee7a14144, type: 3}
    - {fileID: 21300000, guid: 7f07d37da1d569a4dac19d1911a5dac0, type: 3}
  m_AnimationClipSettings:
    serializedVersion: 2
    m_AdditiveReferencePoseClip: {fileID: 0}
    m_AdditiveReferencePoseTime: 0
    m_StartTime: 0
    m_StopTime: 0.8
    m_OrientationOffsetY: 0
    m_Level: 0
    m_CycleOffset: 0
    m_HasAdditiveReferencePose: 0
    m_LoopTime: 1
    m_LoopBlend: 0
    m_LoopBlendOrientation: 0
    m_LoopBlendPositionY: 0
    m_LoopBlendPositionXZ: 0
    m_KeepOriginalOrientation: 0
    m_KeepOriginalPositionY: 1
    m_KeepOriginalPositionXZ: 0
    m_HeightFromFeet: 0
    m_Mirror: 0
  m_EditorCurves: []
  m_EulerEditorCurves: []
  m_HasGenericRootTransform: 0
  m_HasMotionFloatCurves: 0
  m_Events: []
