%YAML 1.1
%TAG !u! tag:unity3d.com,2011:
--- !u!74 &7400000
AnimationClip:
  m_ObjectHideFlags: 0
  m_CorrespondingSourceObject: {fileID: 0}
  m_PrefabInstance: {fileID: 0}
  m_PrefabAsset: {fileID: 0}
  m_Name: Walk_FrontW2Plates
  serializedVersion: 6
  m_Legacy: 0
  m_Compressed: 0
  m_UseHighQualityCurve: 1
  m_RotationCurves: []
  m_CompressedRotationCurves: []
  m_EulerCurves: []
  m_PositionCurves: []
  m_ScaleCurves: []
  m_FloatCurves: []
  m_PPtrCurves:
  - curve:
    - time: 0
      value: {fileID: 21300000, guid: cba8d9462f560d049be55836506c8364, type: 3}
    - time: 0.04
      value: {fileID: 21300000, guid: 23ca6aee899f8a449b867ccda7b7f3c5, type: 3}
    - time: 0.08
      value: {fileID: 21300000, guid: 1e8d1c720b2190545bc53e8b9518af97, type: 3}
    - time: 0.12
      value: {fileID: 21300000, guid: b4cd0b1ce11490943993912ed57573af, type: 3}
    - time: 0.16
      value: {fileID: 21300000, guid: d156c7e0c24d57f4c813854e5b7b4389, type: 3}
    - time: 0.2
      value: {fileID: 21300000, guid: 7ade9e7f2d6641a479346cc058c18400, type: 3}
    - time: 0.24
      value: {fileID: 21300000, guid: a858937ca327e13479eba127887628e2, type: 3}
    - time: 0.28
      value: {fileID: 21300000, guid: 27c55bca47263f24ea305c31bf7337a1, type: 3}
    - time: 0.32
      value: {fileID: 21300000, guid: 19e2d1002f25ca24fad4da0c527e6478, type: 3}
    - time: 0.36
      value: {fileID: 21300000, guid: aaa5ef9b014232a40b0e65a67067c9f9, type: 3}
    - time: 0.4
      value: {fileID: 21300000, guid: 7b670a146bab08f40b39375068a17466, type: 3}
    - time: 0.44
      value: {fileID: 21300000, guid: 368e0b6a53b72cc4aba01d947017f8c0, type: 3}
    - time: 0.48
      value: {fileID: 21300000, guid: 1e336a8c4d696e44b929dfec649ba841, type: 3}
    - time: 0.52
      value: {fileID: 21300000, guid: 6e2ede1b4ed90f64490519996a00a8b8, type: 3}
    - time: 0.56
      value: {fileID: 21300000, guid: 5371b45c162f3df438c310d8be26f9f6, type: 3}
    - time: 0.6
      value: {fileID: 21300000, guid: a50d202642443784fbc93509cb9edece, type: 3}
    - time: 0.64
      value: {fileID: 21300000, guid: e6f235fd84ba8f64b834e9725d68d974, type: 3}
    - time: 0.68
      value: {fileID: 21300000, guid: a7f45d16e3e6de946af19612c43a9649, type: 3}
    - time: 0.72
      value: {fileID: 21300000, guid: 3d9bcce4b5ee75a44860402ee34098c7, type: 3}
    - time: 0.76
      value: {fileID: 21300000, guid: ffc0505f9c897604787a8c92d382f511, type: 3}
    attribute: m_Sprite
    path: 
    classID: 212
    script: {fileID: 0}
  m_SampleRate: 25
  m_WrapMode: 0
  m_Bounds:
    m_Center: {x: 0, y: 0, z: 0}
    m_Extent: {x: 0, y: 0, z: 0}
  m_ClipBindingConstant:
    genericBindings:
    - serializedVersion: 2
      path: 0
      attribute: 0
      script: {fileID: 0}
      typeID: 212
      customType: 23
      isPPtrCurve: 1
    pptrCurveMapping:
    - {fileID: 21300000, guid: cba8d9462f560d049be55836506c8364, type: 3}
    - {fileID: 21300000, guid: 23ca6aee899f8a449b867ccda7b7f3c5, type: 3}
    - {fileID: 21300000, guid: 1e8d1c720b2190545bc53e8b9518af97, type: 3}
    - {fileID: 21300000, guid: b4cd0b1ce11490943993912ed57573af, type: 3}
    - {fileID: 21300000, guid: d156c7e0c24d57f4c813854e5b7b4389, type: 3}
    - {fileID: 21300000, guid: 7ade9e7f2d6641a479346cc058c18400, type: 3}
    - {fileID: 21300000, guid: a858937ca327e13479eba127887628e2, type: 3}
    - {fileID: 21300000, guid: 27c55bca47263f24ea305c31bf7337a1, type: 3}
    - {fileID: 21300000, guid: 19e2d1002f25ca24fad4da0c527e6478, type: 3}
    - {fileID: 21300000, guid: aaa5ef9b014232a40b0e65a67067c9f9, type: 3}
    - {fileID: 21300000, guid: 7b670a146bab08f40b39375068a17466, type: 3}
    - {fileID: 21300000, guid: 368e0b6a53b72cc4aba01d947017f8c0, type: 3}
    - {fileID: 21300000, guid: 1e336a8c4d696e44b929dfec649ba841, type: 3}
    - {fileID: 21300000, guid: 6e2ede1b4ed90f64490519996a00a8b8, type: 3}
    - {fileID: 21300000, guid: 5371b45c162f3df438c310d8be26f9f6, type: 3}
    - {fileID: 21300000, guid: a50d202642443784fbc93509cb9edece, type: 3}
    - {fileID: 21300000, guid: e6f235fd84ba8f64b834e9725d68d974, type: 3}
    - {fileID: 21300000, guid: a7f45d16e3e6de946af19612c43a9649, type: 3}
    - {fileID: 21300000, guid: 3d9bcce4b5ee75a44860402ee34098c7, type: 3}
    - {fileID: 21300000, guid: ffc0505f9c897604787a8c92d382f511, type: 3}
  m_AnimationClipSettings:
    serializedVersion: 2
    m_AdditiveReferencePoseClip: {fileID: 0}
    m_AdditiveReferencePoseTime: 0
    m_StartTime: 0
    m_StopTime: 0.8
    m_OrientationOffsetY: 0
    m_Level: 0
    m_CycleOffset: 0
    m_HasAdditiveReferencePose: 0
    m_LoopTime: 1
    m_LoopBlend: 0
    m_LoopBlendOrientation: 0
    m_LoopBlendPositionY: 0
    m_LoopBlendPositionXZ: 0
    m_KeepOriginalOrientation: 0
    m_KeepOriginalPositionY: 1
    m_KeepOriginalPositionXZ: 0
    m_HeightFromFeet: 0
    m_Mirror: 0
  m_EditorCurves: []
  m_EulerEditorCurves: []
  m_HasGenericRootTransform: 0
  m_HasMotionFloatCurves: 0
  m_Events: []
