%YAML 1.1
%TAG !u! tag:unity3d.com,2011:
--- !u!74 &7400000
AnimationClip:
  m_ObjectHideFlags: 0
  m_CorrespondingSourceObject: {fileID: 0}
  m_PrefabInstance: {fileID: 0}
  m_PrefabAsset: {fileID: 0}
  m_Name: Cola_Pour
  serializedVersion: 6
  m_Legacy: 0
  m_Compressed: 0
  m_UseHighQualityCurve: 1
  m_RotationCurves: []
  m_CompressedRotationCurves: []
  m_EulerCurves: []
  m_PositionCurves: []
  m_ScaleCurves: []
  m_FloatCurves: []
  m_PPtrCurves:
  - curve:
    - time: 0
      value: {fileID: 21300000, guid: 96c4abd4eccb87841b1bd1ff9bdb83f3, type: 3}
    - time: 0.14285715
      value: {fileID: 21300000, guid: 7e617172562a4604abbb6ccdbc7fb300, type: 3}
    - time: 0.2857143
      value: {fileID: 21300000, guid: c3c15908e8ee3444394a460d36260b9e, type: 3}
    - time: 0.42857143
      value: {fileID: 21300000, guid: 58a8ed3d84f6496409528f777c35b136, type: 3}
    - time: 0.5714286
      value: {fileID: 21300000, guid: d38819d305f5abb44917ea18664aa441, type: 3}
    attribute: m_Sprite
    path: 
    classID: 212
    script: {fileID: 0}
  m_SampleRate: 7
  m_WrapMode: 0
  m_Bounds:
    m_Center: {x: 0, y: 0, z: 0}
    m_Extent: {x: 0, y: 0, z: 0}
  m_ClipBindingConstant:
    genericBindings:
    - serializedVersion: 2
      path: 0
      attribute: 0
      script: {fileID: 0}
      typeID: 212
      customType: 23
      isPPtrCurve: 1
    pptrCurveMapping:
    - {fileID: 21300000, guid: 96c4abd4eccb87841b1bd1ff9bdb83f3, type: 3}
    - {fileID: 21300000, guid: 7e617172562a4604abbb6ccdbc7fb300, type: 3}
    - {fileID: 21300000, guid: c3c15908e8ee3444394a460d36260b9e, type: 3}
    - {fileID: 21300000, guid: 58a8ed3d84f6496409528f777c35b136, type: 3}
    - {fileID: 21300000, guid: d38819d305f5abb44917ea18664aa441, type: 3}
  m_AnimationClipSettings:
    serializedVersion: 2
    m_AdditiveReferencePoseClip: {fileID: 0}
    m_AdditiveReferencePoseTime: 0
    m_StartTime: 0
    m_StopTime: 0.71428573
    m_OrientationOffsetY: 0
    m_Level: 0
    m_CycleOffset: 0
    m_HasAdditiveReferencePose: 0
    m_LoopTime: 1
    m_LoopBlend: 0
    m_LoopBlendOrientation: 0
    m_LoopBlendPositionY: 0
    m_LoopBlendPositionXZ: 0
    m_KeepOriginalOrientation: 0
    m_KeepOriginalPositionY: 1
    m_KeepOriginalPositionXZ: 0
    m_HeightFromFeet: 0
    m_Mirror: 0
  m_EditorCurves: []
  m_EulerEditorCurves: []
  m_HasGenericRootTransform: 0
  m_HasMotionFloatCurves: 0
  m_Events: []
