%YAML 1.1
%TAG !u! tag:unity3d.com,2011:
--- !u!74 &7400000
AnimationClip:
  m_ObjectHideFlags: 0
  m_CorrespondingSourceObject: {fileID: 0}
  m_PrefabInstance: {fileID: 0}
  m_PrefabAsset: {fileID: 0}
  m_Name: Chef_Cooking
  serializedVersion: 6
  m_Legacy: 0
  m_Compressed: 0
  m_UseHighQualityCurve: 1
  m_RotationCurves: []
  m_CompressedRotationCurves: []
  m_EulerCurves: []
  m_PositionCurves: []
  m_ScaleCurves: []
  m_FloatCurves: []
  m_PPtrCurves:
  - curve:
    - time: 0
      value: {fileID: 21300000, guid: 4cd5e8a93864a6246988858dfec75226, type: 3}
    - time: 0.033333335
      value: {fileID: 21300000, guid: dab61f1c8482f66458c7465bc4dcff88, type: 3}
    - time: 0.06666667
      value: {fileID: 21300000, guid: d5e3a4cc3bc5ea64381bebe9d2860200, type: 3}
    - time: 0.1
      value: {fileID: 21300000, guid: ed1c677b6f3b8624f8832cbc709ef933, type: 3}
    - time: 0.13333334
      value: {fileID: 21300000, guid: 3c566445f7ab9e549b45bbafdf25d7a9, type: 3}
    - time: 0.16666667
      value: {fileID: 21300000, guid: 8f08a6e48e85dec4885c0a72398e1ac7, type: 3}
    - time: 0.2
      value: {fileID: 21300000, guid: f7a0ce20ef051cb42a52c5a0f8489835, type: 3}
    - time: 0.23333333
      value: {fileID: 21300000, guid: 223ac7ab19488674691b3d7bece278ed, type: 3}
    - time: 0.26666668
      value: {fileID: 21300000, guid: 4b4705965944b2b43a6c5b14aebcf7e4, type: 3}
    - time: 0.3
      value: {fileID: 21300000, guid: 906b3f5449fadaf458cf77288a45cf8f, type: 3}
    - time: 0.33333334
      value: {fileID: 21300000, guid: 98d7b1a7c61bc264ca22c0eebd1fb4b3, type: 3}
    - time: 0.36666667
      value: {fileID: 21300000, guid: 4596be94c3b7a5e48a88fc177e4c5b12, type: 3}
    - time: 0.4
      value: {fileID: 21300000, guid: 82b8ccf2a35fd4346b9cba844c4f249e, type: 3}
    - time: 0.43333334
      value: {fileID: 21300000, guid: 9616d37b4451b5f49a04d01121a88ca9, type: 3}
    - time: 0.46666667
      value: {fileID: 21300000, guid: 490b273b464996f4da222d7382dc74c2, type: 3}
    - time: 0.5
      value: {fileID: 21300000, guid: 6edfe1edc93aafa4ebb74d401594477e, type: 3}
    - time: 0.53333336
      value: {fileID: 21300000, guid: 35616030ad46475408aacc7794a9ec06, type: 3}
    - time: 0.56666666
      value: {fileID: 21300000, guid: 52f12c5290a15224580cd0109f2661ce, type: 3}
    - time: 0.6
      value: {fileID: 21300000, guid: c99c8b3ff53728b4e9473093f3c6abf7, type: 3}
    - time: 0.6333333
      value: {fileID: 21300000, guid: 6b189fb5cf3d44b408bdbd4a96ec5c4c, type: 3}
    - time: 0.6666667
      value: {fileID: 21300000, guid: 1bf54ae0aa4b9f44682e4fe55e20e996, type: 3}
    - time: 0.7
      value: {fileID: 21300000, guid: a94169245ce03fa4482dcbd016e80003, type: 3}
    - time: 0.73333335
      value: {fileID: 21300000, guid: 0967f6698269d384989cf021a3cdf0b7, type: 3}
    - time: 0.76666665
      value: {fileID: 21300000, guid: 96059916f795d5749bbc899b02fef08c, type: 3}
    - time: 0.8
      value: {fileID: 21300000, guid: 79bba18df55c48c4c8a26b218664a2a9, type: 3}
    - time: 0.8333333
      value: {fileID: 21300000, guid: 4704cca9afd59454594f62a2ec2dcfff, type: 3}
    - time: 0.8666667
      value: {fileID: 21300000, guid: e053c95315b173748abaceefcf692e08, type: 3}
    - time: 0.9
      value: {fileID: 21300000, guid: b7120f57adb180f46b1e6682edc43123, type: 3}
    - time: 0.93333334
      value: {fileID: 21300000, guid: 5476848378639fa4ea1c5a6080fa755c, type: 3}
    - time: 0.96666664
      value: {fileID: 21300000, guid: 1dac208cb47423e49a9ed6e73cb5bffa, type: 3}
    - time: 1
      value: {fileID: 21300000, guid: 7a89124f0339cca4ca2a77f66d52e88c, type: 3}
    - time: 1.0333333
      value: {fileID: 21300000, guid: 0ebe9f4e2668d55499e8628327d216f6, type: 3}
    - time: 1.0666667
      value: {fileID: 21300000, guid: 4bfe625cd849359419c1024afe168cae, type: 3}
    - time: 1.1
      value: {fileID: 21300000, guid: decdccbe00871f449a5c6bfc5a29b61b, type: 3}
    - time: 1.1333333
      value: {fileID: 21300000, guid: 0d726fd48ce320043b9867c2d516a2e5, type: 3}
    - time: 1.1666666
      value: {fileID: 21300000, guid: b30d704d55dc18040a9086747d0b6193, type: 3}
    - time: 1.2
      value: {fileID: 21300000, guid: 87b3ef60fed8f484c9b33e1eee54ebe8, type: 3}
    - time: 1.2333333
      value: {fileID: 21300000, guid: 0e282fe121ea442429bd4905ad40e84f, type: 3}
    - time: 1.2666667
      value: {fileID: 21300000, guid: cce8a6494218dcf47b41887547d3cf06, type: 3}
    - time: 1.3
      value: {fileID: 21300000, guid: 82246b06abf712643a69feb196698332, type: 3}
    attribute: m_Sprite
    path: 
    classID: 212
    script: {fileID: 0}
  m_SampleRate: 30
  m_WrapMode: 0
  m_Bounds:
    m_Center: {x: 0, y: 0, z: 0}
    m_Extent: {x: 0, y: 0, z: 0}
  m_ClipBindingConstant:
    genericBindings:
    - serializedVersion: 2
      path: 0
      attribute: 0
      script: {fileID: 0}
      typeID: 212
      customType: 23
      isPPtrCurve: 1
    pptrCurveMapping:
    - {fileID: 21300000, guid: 4cd5e8a93864a6246988858dfec75226, type: 3}
    - {fileID: 21300000, guid: dab61f1c8482f66458c7465bc4dcff88, type: 3}
    - {fileID: 21300000, guid: d5e3a4cc3bc5ea64381bebe9d2860200, type: 3}
    - {fileID: 21300000, guid: ed1c677b6f3b8624f8832cbc709ef933, type: 3}
    - {fileID: 21300000, guid: 3c566445f7ab9e549b45bbafdf25d7a9, type: 3}
    - {fileID: 21300000, guid: 8f08a6e48e85dec4885c0a72398e1ac7, type: 3}
    - {fileID: 21300000, guid: f7a0ce20ef051cb42a52c5a0f8489835, type: 3}
    - {fileID: 21300000, guid: 223ac7ab19488674691b3d7bece278ed, type: 3}
    - {fileID: 21300000, guid: 4b4705965944b2b43a6c5b14aebcf7e4, type: 3}
    - {fileID: 21300000, guid: 906b3f5449fadaf458cf77288a45cf8f, type: 3}
    - {fileID: 21300000, guid: 98d7b1a7c61bc264ca22c0eebd1fb4b3, type: 3}
    - {fileID: 21300000, guid: 4596be94c3b7a5e48a88fc177e4c5b12, type: 3}
    - {fileID: 21300000, guid: 82b8ccf2a35fd4346b9cba844c4f249e, type: 3}
    - {fileID: 21300000, guid: 9616d37b4451b5f49a04d01121a88ca9, type: 3}
    - {fileID: 21300000, guid: 490b273b464996f4da222d7382dc74c2, type: 3}
    - {fileID: 21300000, guid: 6edfe1edc93aafa4ebb74d401594477e, type: 3}
    - {fileID: 21300000, guid: 35616030ad46475408aacc7794a9ec06, type: 3}
    - {fileID: 21300000, guid: 52f12c5290a15224580cd0109f2661ce, type: 3}
    - {fileID: 21300000, guid: c99c8b3ff53728b4e9473093f3c6abf7, type: 3}
    - {fileID: 21300000, guid: 6b189fb5cf3d44b408bdbd4a96ec5c4c, type: 3}
    - {fileID: 21300000, guid: 1bf54ae0aa4b9f44682e4fe55e20e996, type: 3}
    - {fileID: 21300000, guid: a94169245ce03fa4482dcbd016e80003, type: 3}
    - {fileID: 21300000, guid: 0967f6698269d384989cf021a3cdf0b7, type: 3}
    - {fileID: 21300000, guid: 96059916f795d5749bbc899b02fef08c, type: 3}
    - {fileID: 21300000, guid: 79bba18df55c48c4c8a26b218664a2a9, type: 3}
    - {fileID: 21300000, guid: 4704cca9afd59454594f62a2ec2dcfff, type: 3}
    - {fileID: 21300000, guid: e053c95315b173748abaceefcf692e08, type: 3}
    - {fileID: 21300000, guid: b7120f57adb180f46b1e6682edc43123, type: 3}
    - {fileID: 21300000, guid: 5476848378639fa4ea1c5a6080fa755c, type: 3}
    - {fileID: 21300000, guid: 1dac208cb47423e49a9ed6e73cb5bffa, type: 3}
    - {fileID: 21300000, guid: 7a89124f0339cca4ca2a77f66d52e88c, type: 3}
    - {fileID: 21300000, guid: 0ebe9f4e2668d55499e8628327d216f6, type: 3}
    - {fileID: 21300000, guid: 4bfe625cd849359419c1024afe168cae, type: 3}
    - {fileID: 21300000, guid: decdccbe00871f449a5c6bfc5a29b61b, type: 3}
    - {fileID: 21300000, guid: 0d726fd48ce320043b9867c2d516a2e5, type: 3}
    - {fileID: 21300000, guid: b30d704d55dc18040a9086747d0b6193, type: 3}
    - {fileID: 21300000, guid: 87b3ef60fed8f484c9b33e1eee54ebe8, type: 3}
    - {fileID: 21300000, guid: 0e282fe121ea442429bd4905ad40e84f, type: 3}
    - {fileID: 21300000, guid: cce8a6494218dcf47b41887547d3cf06, type: 3}
    - {fileID: 21300000, guid: 82246b06abf712643a69feb196698332, type: 3}
  m_AnimationClipSettings:
    serializedVersion: 2
    m_AdditiveReferencePoseClip: {fileID: 0}
    m_AdditiveReferencePoseTime: 0
    m_StartTime: 0
    m_StopTime: 1.3333333
    m_OrientationOffsetY: 0
    m_Level: 0
    m_CycleOffset: 0
    m_HasAdditiveReferencePose: 0
    m_LoopTime: 1
    m_LoopBlend: 0
    m_LoopBlendOrientation: 0
    m_LoopBlendPositionY: 0
    m_LoopBlendPositionXZ: 0
    m_KeepOriginalOrientation: 0
    m_KeepOriginalPositionY: 1
    m_KeepOriginalPositionXZ: 0
    m_HeightFromFeet: 0
    m_Mirror: 0
  m_EditorCurves: []
  m_EulerEditorCurves: []
  m_HasGenericRootTransform: 0
  m_HasMotionFloatCurves: 0
  m_Events: []
