%YAML 1.1
%TAG !u! tag:unity3d.com,2011:
--- !u!74 &7400000
AnimationClip:
  m_ObjectHideFlags: 0
  m_CorrespondingSourceObject: {fileID: 0}
  m_PrefabInstance: {fileID: 0}
  m_PrefabAsset: {fileID: 0}
  m_Name: C1_EatMeal
  serializedVersion: 6
  m_Legacy: 0
  m_Compressed: 0
  m_UseHighQualityCurve: 1
  m_RotationCurves: []
  m_CompressedRotationCurves: []
  m_EulerCurves: []
  m_PositionCurves: []
  m_ScaleCurves: []
  m_FloatCurves: []
  m_PPtrCurves:
  - curve:
    - time: 0
      value: {fileID: 21300000, guid: f717b868f656bd64b852919c10a10062, type: 3}
    - time: 0.033333335
      value: {fileID: 21300000, guid: 2b3de8eb9707c8d40afa3e628d99213b, type: 3}
    - time: 0.06666667
      value: {fileID: 21300000, guid: 9ceb1f5acf7b95341ab6b271b27e2d09, type: 3}
    - time: 0.1
      value: {fileID: 21300000, guid: f324e9240224807459437b83d306e40c, type: 3}
    - time: 0.13333334
      value: {fileID: 21300000, guid: 1f8b776dcc4025b41a5c06066c02332a, type: 3}
    - time: 0.16666667
      value: {fileID: 21300000, guid: 1cb4c6afeee0c6c4387f652ab1194b11, type: 3}
    - time: 0.2
      value: {fileID: 21300000, guid: e94d2a0acbfd88c4e8c9b7f27efd454e, type: 3}
    - time: 0.23333333
      value: {fileID: 21300000, guid: 597acb09c8257e34c8f7abeb632d5309, type: 3}
    - time: 0.26666668
      value: {fileID: 21300000, guid: d6ab2eeae8a98404295f19c2e0a28821, type: 3}
    - time: 0.3
      value: {fileID: 21300000, guid: b49a3f5bc345a514ab655b6f62284b4f, type: 3}
    - time: 0.33333334
      value: {fileID: 21300000, guid: 4f940aa91defd234089adda562ff3818, type: 3}
    - time: 0.36666667
      value: {fileID: 21300000, guid: bc95c9ab566e57042bea5ca9584f1843, type: 3}
    - time: 0.4
      value: {fileID: 21300000, guid: 1292eef7d4d2d04419f2539ae375232a, type: 3}
    - time: 0.43333334
      value: {fileID: 21300000, guid: 1a5fc07b45bb0084ab3755ee5477def7, type: 3}
    - time: 0.46666667
      value: {fileID: 21300000, guid: e74d5a1ff54c9e842a089ff4b08494e4, type: 3}
    - time: 0.5
      value: {fileID: 21300000, guid: bf4c8d3d5c043ec49a892b2560248a3c, type: 3}
    - time: 0.53333336
      value: {fileID: 21300000, guid: b94023d57a02caa48bec41c541911919, type: 3}
    - time: 0.56666666
      value: {fileID: 21300000, guid: 5b80918426b2a4942918c5a11d571e1f, type: 3}
    - time: 0.6
      value: {fileID: 21300000, guid: 253b1a6df6e499a4a8781f2b02c4ef0f, type: 3}
    - time: 0.6333333
      value: {fileID: 21300000, guid: 5b1b638f20d1cec4591ad42737e2a038, type: 3}
    - time: 0.6666667
      value: {fileID: 21300000, guid: 79b1661dac04d6944827e5c14e71e73c, type: 3}
    - time: 0.7
      value: {fileID: 21300000, guid: c61981706c49ccb468ef57bd6ee290f0, type: 3}
    - time: 0.73333335
      value: {fileID: 21300000, guid: 23396beed8be579499c15cc384ce098e, type: 3}
    - time: 0.76666665
      value: {fileID: 21300000, guid: df5ec9c9225d8354a9dbd4ccd510b6dc, type: 3}
    - time: 0.8
      value: {fileID: 21300000, guid: 40352966912f7004b85d343f51e9c2d5, type: 3}
    - time: 0.8333333
      value: {fileID: 21300000, guid: 7db25e566ee512b45ac0d5d977aa7971, type: 3}
    - time: 0.8666667
      value: {fileID: 21300000, guid: bf71c6656f639b745bd2a7db69db5bae, type: 3}
    - time: 0.9
      value: {fileID: 21300000, guid: bbdcae155e76a4a4196e718b0f0c0614, type: 3}
    - time: 0.93333334
      value: {fileID: 21300000, guid: 512073e07424d6944a211b44878ea111, type: 3}
    - time: 0.96666664
      value: {fileID: 21300000, guid: 76cff0234884aa94382e48ace97eee3f, type: 3}
    - time: 1
      value: {fileID: 21300000, guid: 0bcb0da92fa0ec74185308196fca49b6, type: 3}
    - time: 1.0333333
      value: {fileID: 21300000, guid: 220bad0027f21e944b6592420c92798a, type: 3}
    - time: 1.0666667
      value: {fileID: 21300000, guid: 6001982459a8f9741b264545dd6c0c75, type: 3}
    - time: 1.1
      value: {fileID: 21300000, guid: 39b3afc7bb72a5143b11bdf9ad05626d, type: 3}
    - time: 1.1333333
      value: {fileID: 21300000, guid: de1ec3a7d44a53e4ea226b8bac0128e4, type: 3}
    - time: 1.1666666
      value: {fileID: 21300000, guid: e6c48208eee571844b022b9407865fcf, type: 3}
    - time: 1.2
      value: {fileID: 21300000, guid: 0433727e21ec0f845b9e0e186e25e4e3, type: 3}
    - time: 1.2333333
      value: {fileID: 21300000, guid: 156a0a55de2f9f84a8597f8addb37ade, type: 3}
    - time: 1.2666667
      value: {fileID: 21300000, guid: 7ec6be8e184a5d54987061071860eee4, type: 3}
    - time: 1.3
      value: {fileID: 21300000, guid: 74f3519358c8d604abf4e7d10779b090, type: 3}
    - time: 1.3333334
      value: {fileID: 21300000, guid: b59904c6c24c09f49ac42052fa88e083, type: 3}
    - time: 1.3666667
      value: {fileID: 21300000, guid: 33f6c022af3b61f4b98f027d2f71e0b0, type: 3}
    - time: 1.4
      value: {fileID: 21300000, guid: f820783c403c11d4bbec0e0b4c285232, type: 3}
    - time: 1.4333333
      value: {fileID: 21300000, guid: 9961561b688e506458af93cb3c9aec3e, type: 3}
    - time: 1.4666667
      value: {fileID: 21300000, guid: e9f704c54a773974e8a6b3e4ca1a75db, type: 3}
    - time: 1.5
      value: {fileID: 21300000, guid: c3a00732ed84e454bb11c025f1dcca49, type: 3}
    - time: 1.5333333
      value: {fileID: 21300000, guid: df1dc36cfebd9ef418959e77399112d8, type: 3}
    - time: 1.5666667
      value: {fileID: 21300000, guid: d4a62715179529b45acdd58714f6bf2a, type: 3}
    - time: 1.6
      value: {fileID: 21300000, guid: b5d0b7a6650123c48a4a6a275e3659ed, type: 3}
    - time: 1.6333333
      value: {fileID: 21300000, guid: 7d41d93a0214de3419d9e611a2f03c2f, type: 3}
    - time: 1.6666666
      value: {fileID: 21300000, guid: 8fb6f119d53ba3b46a495dbbac53e107, type: 3}
    - time: 1.7
      value: {fileID: 21300000, guid: f5db31d62279dbe498cdf2fc39ac8884, type: 3}
    - time: 1.7333333
      value: {fileID: 21300000, guid: edcfae9fff299f1498d6d4f1f2027cf4, type: 3}
    - time: 1.7666667
      value: {fileID: 21300000, guid: 1b5f5453b257e8647b05e85a494ce79f, type: 3}
    - time: 1.8
      value: {fileID: 21300000, guid: 17106e8d6817c6e45bf685327527d493, type: 3}
    - time: 1.8333334
      value: {fileID: 21300000, guid: 6e116b92e0e421d45ae54ec4586ff51a, type: 3}
    - time: 1.8666667
      value: {fileID: 21300000, guid: 9a23478dbe41a664a8a57b570bb2218f, type: 3}
    - time: 1.9
      value: {fileID: 21300000, guid: 39e45b116fe56d64499cdbc30d1dfa8e, type: 3}
    - time: 1.9333333
      value: {fileID: 21300000, guid: 98cb24732c66f884581056ae40314116, type: 3}
    - time: 1.9666667
      value: {fileID: 21300000, guid: c17af3ab58c4ba841bdb42dd6a829b63, type: 3}
    - time: 2
      value: {fileID: 21300000, guid: 8af2edb324f89234c84fd8f11b9d57fa, type: 3}
    - time: 2.0333333
      value: {fileID: 21300000, guid: b8abe88fa70b52a45a97f615ab294998, type: 3}
    - time: 2.0666666
      value: {fileID: 21300000, guid: 7149175e1edccbe4eaa1f8f0edb43a5a, type: 3}
    - time: 2.1
      value: {fileID: 21300000, guid: 480f1d7f8d844f840b3063f1e80944ee, type: 3}
    - time: 2.1333334
      value: {fileID: 21300000, guid: 21af0300980ce4d4e8efe7db5436e550, type: 3}
    - time: 2.1666667
      value: {fileID: 21300000, guid: c0355689e8223414993ed7f1762e04c2, type: 3}
    - time: 2.2
      value: {fileID: 21300000, guid: 605516beae7124b49b608e549c9391d7, type: 3}
    - time: 2.2333333
      value: {fileID: 21300000, guid: 1eba200815c935149a777f9ae6dca1d6, type: 3}
    - time: 2.2666667
      value: {fileID: 21300000, guid: 9eb6cac53cca35a4584572c61825ac93, type: 3}
    - time: 2.3
      value: {fileID: 21300000, guid: 0a9b1cfc092bcd945a23eeead1ed52c1, type: 3}
    - time: 2.3333333
      value: {fileID: 21300000, guid: 9b8e284405e712b41a274cbf07cb0596, type: 3}
    - time: 2.3666666
      value: {fileID: 21300000, guid: 4af9d2d47154f754589c79886ff789ad, type: 3}
    - time: 2.4
      value: {fileID: 21300000, guid: 9976111e02a14fd409f5a429b0c7dd43, type: 3}
    - time: 2.4333334
      value: {fileID: 21300000, guid: 1b95de6574a204a4e93e1449a2bda1fc, type: 3}
    - time: 2.4666667
      value: {fileID: 21300000, guid: 6219d5f4e6576bc41b65a9bbbfa057fc, type: 3}
    - time: 2.5
      value: {fileID: 21300000, guid: 605442113a0a9d04d9e0a658c6c43113, type: 3}
    - time: 2.5333333
      value: {fileID: 21300000, guid: 651ad5e542cdc144593c65ef15490e5b, type: 3}
    - time: 2.5666666
      value: {fileID: 21300000, guid: 9307c6bc420da7e4fa11ffc6a39779bf, type: 3}
    - time: 2.6
      value: {fileID: 21300000, guid: 8cffef671e48f89428fbeb2037438590, type: 3}
    - time: 2.6333334
      value: {fileID: 21300000, guid: 17eb6e074628b0645ba59446bc680698, type: 3}
    - time: 2.6666667
      value: {fileID: 21300000, guid: 5369a4333c1f2d5429c646b815210d90, type: 3}
    - time: 2.7
      value: {fileID: 21300000, guid: d7794fd6ac3d6454a81b5345a253c611, type: 3}
    - time: 2.7333333
      value: {fileID: 21300000, guid: 0a640806a91dc35488e0a8551a67eaf3, type: 3}
    - time: 2.7666667
      value: {fileID: 21300000, guid: ae622109d6345174fbcd9f00323f9efd, type: 3}
    - time: 2.8
      value: {fileID: 21300000, guid: 2bbf43878553f214f8423001b47c231e, type: 3}
    - time: 2.8333333
      value: {fileID: 21300000, guid: d2b77ae367da7eb42879f6d0dbfd865d, type: 3}
    - time: 2.8666666
      value: {fileID: 21300000, guid: 693ba3bf5c8ce4e4ca1c6c1cc7de6890, type: 3}
    - time: 2.9
      value: {fileID: 21300000, guid: bf1b3e52754533a4d9c3a0983b5a4607, type: 3}
    - time: 2.9333334
      value: {fileID: 21300000, guid: 833d6c0ed7b3b4d49bd5b0e04a8ae0d8, type: 3}
    - time: 2.9666667
      value: {fileID: 21300000, guid: 539e0d0539caaaa42a76e0188352c974, type: 3}
    - time: 3
      value: {fileID: 21300000, guid: 89c6f1eb30dd04d429cb49d115a13229, type: 3}
    - time: 3.0333333
      value: {fileID: 21300000, guid: 4acbfc0ae8561dc43a305e555b8b704a, type: 3}
    - time: 3.0666666
      value: {fileID: 21300000, guid: e3bc4475612e37a4eb29a2737ef7ddc3, type: 3}
    - time: 3.1
      value: {fileID: 21300000, guid: 9ea7c56d22013a246a3c8076ab538e10, type: 3}
    - time: 3.1333334
      value: {fileID: 21300000, guid: 8b10aa5848f905848af18ff3ca4d7b36, type: 3}
    - time: 3.1666667
      value: {fileID: 21300000, guid: cde91edc921a0b74b91168064bc477ec, type: 3}
    - time: 3.2
      value: {fileID: 21300000, guid: a2c592d853933e642866d9cb3c406ba6, type: 3}
    - time: 3.2333333
      value: {fileID: 21300000, guid: 1f31903c237410a4ba7a2715b95e5245, type: 3}
    - time: 3.2666667
      value: {fileID: 21300000, guid: 45593ca2633d96746b9d827819268827, type: 3}
    - time: 3.3
      value: {fileID: 21300000, guid: ebae02b966fa0d9478ffc4df0eb7c7d8, type: 3}
    - time: 3.3333333
      value: {fileID: 21300000, guid: 32a3b199e3590c545a5ba9932b2b8061, type: 3}
    - time: 3.3666666
      value: {fileID: 21300000, guid: ac5cc9a98d37adc4ab47dfd01f90ca12, type: 3}
    - time: 3.4
      value: {fileID: 21300000, guid: 33730ef1b1de8b54192e5ce99720cd98, type: 3}
    - time: 3.4333334
      value: {fileID: 21300000, guid: 2d6c11c728a95f141b594a612872be0f, type: 3}
    - time: 3.4666667
      value: {fileID: 21300000, guid: 1a8eff60037dcee42afb797e8fcdf8c7, type: 3}
    attribute: m_Sprite
    path: 
    classID: 212
    script: {fileID: 0}
  m_SampleRate: 30
  m_WrapMode: 0
  m_Bounds:
    m_Center: {x: 0, y: 0, z: 0}
    m_Extent: {x: 0, y: 0, z: 0}
  m_ClipBindingConstant:
    genericBindings:
    - serializedVersion: 2
      path: 0
      attribute: 0
      script: {fileID: 0}
      typeID: 212
      customType: 23
      isPPtrCurve: 1
    pptrCurveMapping:
    - {fileID: 21300000, guid: f717b868f656bd64b852919c10a10062, type: 3}
    - {fileID: 21300000, guid: 2b3de8eb9707c8d40afa3e628d99213b, type: 3}
    - {fileID: 21300000, guid: 9ceb1f5acf7b95341ab6b271b27e2d09, type: 3}
    - {fileID: 21300000, guid: f324e9240224807459437b83d306e40c, type: 3}
    - {fileID: 21300000, guid: 1f8b776dcc4025b41a5c06066c02332a, type: 3}
    - {fileID: 21300000, guid: 1cb4c6afeee0c6c4387f652ab1194b11, type: 3}
    - {fileID: 21300000, guid: e94d2a0acbfd88c4e8c9b7f27efd454e, type: 3}
    - {fileID: 21300000, guid: 597acb09c8257e34c8f7abeb632d5309, type: 3}
    - {fileID: 21300000, guid: d6ab2eeae8a98404295f19c2e0a28821, type: 3}
    - {fileID: 21300000, guid: b49a3f5bc345a514ab655b6f62284b4f, type: 3}
    - {fileID: 21300000, guid: 4f940aa91defd234089adda562ff3818, type: 3}
    - {fileID: 21300000, guid: bc95c9ab566e57042bea5ca9584f1843, type: 3}
    - {fileID: 21300000, guid: 1292eef7d4d2d04419f2539ae375232a, type: 3}
    - {fileID: 21300000, guid: 1a5fc07b45bb0084ab3755ee5477def7, type: 3}
    - {fileID: 21300000, guid: e74d5a1ff54c9e842a089ff4b08494e4, type: 3}
    - {fileID: 21300000, guid: bf4c8d3d5c043ec49a892b2560248a3c, type: 3}
    - {fileID: 21300000, guid: b94023d57a02caa48bec41c541911919, type: 3}
    - {fileID: 21300000, guid: 5b80918426b2a4942918c5a11d571e1f, type: 3}
    - {fileID: 21300000, guid: 253b1a6df6e499a4a8781f2b02c4ef0f, type: 3}
    - {fileID: 21300000, guid: 5b1b638f20d1cec4591ad42737e2a038, type: 3}
    - {fileID: 21300000, guid: 79b1661dac04d6944827e5c14e71e73c, type: 3}
    - {fileID: 21300000, guid: c61981706c49ccb468ef57bd6ee290f0, type: 3}
    - {fileID: 21300000, guid: 23396beed8be579499c15cc384ce098e, type: 3}
    - {fileID: 21300000, guid: df5ec9c9225d8354a9dbd4ccd510b6dc, type: 3}
    - {fileID: 21300000, guid: 40352966912f7004b85d343f51e9c2d5, type: 3}
    - {fileID: 21300000, guid: 7db25e566ee512b45ac0d5d977aa7971, type: 3}
    - {fileID: 21300000, guid: bf71c6656f639b745bd2a7db69db5bae, type: 3}
    - {fileID: 21300000, guid: bbdcae155e76a4a4196e718b0f0c0614, type: 3}
    - {fileID: 21300000, guid: 512073e07424d6944a211b44878ea111, type: 3}
    - {fileID: 21300000, guid: 76cff0234884aa94382e48ace97eee3f, type: 3}
    - {fileID: 21300000, guid: 0bcb0da92fa0ec74185308196fca49b6, type: 3}
    - {fileID: 21300000, guid: 220bad0027f21e944b6592420c92798a, type: 3}
    - {fileID: 21300000, guid: 6001982459a8f9741b264545dd6c0c75, type: 3}
    - {fileID: 21300000, guid: 39b3afc7bb72a5143b11bdf9ad05626d, type: 3}
    - {fileID: 21300000, guid: de1ec3a7d44a53e4ea226b8bac0128e4, type: 3}
    - {fileID: 21300000, guid: e6c48208eee571844b022b9407865fcf, type: 3}
    - {fileID: 21300000, guid: 0433727e21ec0f845b9e0e186e25e4e3, type: 3}
    - {fileID: 21300000, guid: 156a0a55de2f9f84a8597f8addb37ade, type: 3}
    - {fileID: 21300000, guid: 7ec6be8e184a5d54987061071860eee4, type: 3}
    - {fileID: 21300000, guid: 74f3519358c8d604abf4e7d10779b090, type: 3}
    - {fileID: 21300000, guid: b59904c6c24c09f49ac42052fa88e083, type: 3}
    - {fileID: 21300000, guid: 33f6c022af3b61f4b98f027d2f71e0b0, type: 3}
    - {fileID: 21300000, guid: f820783c403c11d4bbec0e0b4c285232, type: 3}
    - {fileID: 21300000, guid: 9961561b688e506458af93cb3c9aec3e, type: 3}
    - {fileID: 21300000, guid: e9f704c54a773974e8a6b3e4ca1a75db, type: 3}
    - {fileID: 21300000, guid: c3a00732ed84e454bb11c025f1dcca49, type: 3}
    - {fileID: 21300000, guid: df1dc36cfebd9ef418959e77399112d8, type: 3}
    - {fileID: 21300000, guid: d4a62715179529b45acdd58714f6bf2a, type: 3}
    - {fileID: 21300000, guid: b5d0b7a6650123c48a4a6a275e3659ed, type: 3}
    - {fileID: 21300000, guid: 7d41d93a0214de3419d9e611a2f03c2f, type: 3}
    - {fileID: 21300000, guid: 8fb6f119d53ba3b46a495dbbac53e107, type: 3}
    - {fileID: 21300000, guid: f5db31d62279dbe498cdf2fc39ac8884, type: 3}
    - {fileID: 21300000, guid: edcfae9fff299f1498d6d4f1f2027cf4, type: 3}
    - {fileID: 21300000, guid: 1b5f5453b257e8647b05e85a494ce79f, type: 3}
    - {fileID: 21300000, guid: 17106e8d6817c6e45bf685327527d493, type: 3}
    - {fileID: 21300000, guid: 6e116b92e0e421d45ae54ec4586ff51a, type: 3}
    - {fileID: 21300000, guid: 9a23478dbe41a664a8a57b570bb2218f, type: 3}
    - {fileID: 21300000, guid: 39e45b116fe56d64499cdbc30d1dfa8e, type: 3}
    - {fileID: 21300000, guid: 98cb24732c66f884581056ae40314116, type: 3}
    - {fileID: 21300000, guid: c17af3ab58c4ba841bdb42dd6a829b63, type: 3}
    - {fileID: 21300000, guid: 8af2edb324f89234c84fd8f11b9d57fa, type: 3}
    - {fileID: 21300000, guid: b8abe88fa70b52a45a97f615ab294998, type: 3}
    - {fileID: 21300000, guid: 7149175e1edccbe4eaa1f8f0edb43a5a, type: 3}
    - {fileID: 21300000, guid: 480f1d7f8d844f840b3063f1e80944ee, type: 3}
    - {fileID: 21300000, guid: 21af0300980ce4d4e8efe7db5436e550, type: 3}
    - {fileID: 21300000, guid: c0355689e8223414993ed7f1762e04c2, type: 3}
    - {fileID: 21300000, guid: 605516beae7124b49b608e549c9391d7, type: 3}
    - {fileID: 21300000, guid: 1eba200815c935149a777f9ae6dca1d6, type: 3}
    - {fileID: 21300000, guid: 9eb6cac53cca35a4584572c61825ac93, type: 3}
    - {fileID: 21300000, guid: 0a9b1cfc092bcd945a23eeead1ed52c1, type: 3}
    - {fileID: 21300000, guid: 9b8e284405e712b41a274cbf07cb0596, type: 3}
    - {fileID: 21300000, guid: 4af9d2d47154f754589c79886ff789ad, type: 3}
    - {fileID: 21300000, guid: 9976111e02a14fd409f5a429b0c7dd43, type: 3}
    - {fileID: 21300000, guid: 1b95de6574a204a4e93e1449a2bda1fc, type: 3}
    - {fileID: 21300000, guid: 6219d5f4e6576bc41b65a9bbbfa057fc, type: 3}
    - {fileID: 21300000, guid: 605442113a0a9d04d9e0a658c6c43113, type: 3}
    - {fileID: 21300000, guid: 651ad5e542cdc144593c65ef15490e5b, type: 3}
    - {fileID: 21300000, guid: 9307c6bc420da7e4fa11ffc6a39779bf, type: 3}
    - {fileID: 21300000, guid: 8cffef671e48f89428fbeb2037438590, type: 3}
    - {fileID: 21300000, guid: 17eb6e074628b0645ba59446bc680698, type: 3}
    - {fileID: 21300000, guid: 5369a4333c1f2d5429c646b815210d90, type: 3}
    - {fileID: 21300000, guid: d7794fd6ac3d6454a81b5345a253c611, type: 3}
    - {fileID: 21300000, guid: 0a640806a91dc35488e0a8551a67eaf3, type: 3}
    - {fileID: 21300000, guid: ae622109d6345174fbcd9f00323f9efd, type: 3}
    - {fileID: 21300000, guid: 2bbf43878553f214f8423001b47c231e, type: 3}
    - {fileID: 21300000, guid: d2b77ae367da7eb42879f6d0dbfd865d, type: 3}
    - {fileID: 21300000, guid: 693ba3bf5c8ce4e4ca1c6c1cc7de6890, type: 3}
    - {fileID: 21300000, guid: bf1b3e52754533a4d9c3a0983b5a4607, type: 3}
    - {fileID: 21300000, guid: 833d6c0ed7b3b4d49bd5b0e04a8ae0d8, type: 3}
    - {fileID: 21300000, guid: 539e0d0539caaaa42a76e0188352c974, type: 3}
    - {fileID: 21300000, guid: 89c6f1eb30dd04d429cb49d115a13229, type: 3}
    - {fileID: 21300000, guid: 4acbfc0ae8561dc43a305e555b8b704a, type: 3}
    - {fileID: 21300000, guid: e3bc4475612e37a4eb29a2737ef7ddc3, type: 3}
    - {fileID: 21300000, guid: 9ea7c56d22013a246a3c8076ab538e10, type: 3}
    - {fileID: 21300000, guid: 8b10aa5848f905848af18ff3ca4d7b36, type: 3}
    - {fileID: 21300000, guid: cde91edc921a0b74b91168064bc477ec, type: 3}
    - {fileID: 21300000, guid: a2c592d853933e642866d9cb3c406ba6, type: 3}
    - {fileID: 21300000, guid: 1f31903c237410a4ba7a2715b95e5245, type: 3}
    - {fileID: 21300000, guid: 45593ca2633d96746b9d827819268827, type: 3}
    - {fileID: 21300000, guid: ebae02b966fa0d9478ffc4df0eb7c7d8, type: 3}
    - {fileID: 21300000, guid: 32a3b199e3590c545a5ba9932b2b8061, type: 3}
    - {fileID: 21300000, guid: ac5cc9a98d37adc4ab47dfd01f90ca12, type: 3}
    - {fileID: 21300000, guid: 33730ef1b1de8b54192e5ce99720cd98, type: 3}
    - {fileID: 21300000, guid: 2d6c11c728a95f141b594a612872be0f, type: 3}
    - {fileID: 21300000, guid: 1a8eff60037dcee42afb797e8fcdf8c7, type: 3}
  m_AnimationClipSettings:
    serializedVersion: 2
    m_AdditiveReferencePoseClip: {fileID: 0}
    m_AdditiveReferencePoseTime: 0
    m_StartTime: 0
    m_StopTime: 3.5
    m_OrientationOffsetY: 0
    m_Level: 0
    m_CycleOffset: 0
    m_HasAdditiveReferencePose: 0
    m_LoopTime: 1
    m_LoopBlend: 0
    m_LoopBlendOrientation: 0
    m_LoopBlendPositionY: 0
    m_LoopBlendPositionXZ: 0
    m_KeepOriginalOrientation: 0
    m_KeepOriginalPositionY: 1
    m_KeepOriginalPositionXZ: 0
    m_HeightFromFeet: 0
    m_Mirror: 0
  m_EditorCurves: []
  m_EulerEditorCurves: []
  m_HasGenericRootTransform: 0
  m_HasMotionFloatCurves: 0
  m_Events: []
