%YAML 1.1
%TAG !u! tag:unity3d.com,2011:
--- !u!74 &7400000
AnimationClip:
  m_ObjectHideFlags: 0
  m_CorrespondingSourceObject: {fileID: 0}
  m_PrefabInstance: {fileID: 0}
  m_PrefabAsset: {fileID: 0}
  m_Name: C1_OrderExplain
  serializedVersion: 6
  m_Legacy: 0
  m_Compressed: 0
  m_UseHighQualityCurve: 1
  m_RotationCurves: []
  m_CompressedRotationCurves: []
  m_EulerCurves: []
  m_PositionCurves: []
  m_ScaleCurves: []
  m_FloatCurves: []
  m_PPtrCurves:
  - curve:
    - time: 0
      value: {fileID: 21300000, guid: 37cbdab326856d74c89a55dcface413e, type: 3}
    - time: 0.04
      value: {fileID: 21300000, guid: d5c89073830326b43a3f673fdd155598, type: 3}
    - time: 0.08
      value: {fileID: 21300000, guid: 070da193750c0f34c8f70712c8f73dc7, type: 3}
    - time: 0.12
      value: {fileID: 21300000, guid: 9611f6398dfb0424a9466ead2ce618f2, type: 3}
    - time: 0.16
      value: {fileID: 21300000, guid: 1a99e576f089de2409da23ce1d20f854, type: 3}
    - time: 0.2
      value: {fileID: 21300000, guid: 2831c98ae0ea1594d81306e5807153ff, type: 3}
    - time: 0.24
      value: {fileID: 21300000, guid: c51b4850d101e0349b3056f5f246e1dc, type: 3}
    - time: 0.28
      value: {fileID: 21300000, guid: 5748c6521e07b6448819c083f27f19ec, type: 3}
    - time: 0.32
      value: {fileID: 21300000, guid: 69f01720a443aa84d8c6c5e2bf74c73d, type: 3}
    - time: 0.36
      value: {fileID: 21300000, guid: 2caaeaa6db0f89d47b7591a374ca573b, type: 3}
    - time: 0.4
      value: {fileID: 21300000, guid: 7688d8e3fa7c3834fa04a7e5240133be, type: 3}
    - time: 0.44
      value: {fileID: 21300000, guid: 781bb1d4b47125049b6687aeb58f1fd4, type: 3}
    - time: 0.48
      value: {fileID: 21300000, guid: e30a70aae8ad56948b4334f47ef7dbbb, type: 3}
    - time: 0.52
      value: {fileID: 21300000, guid: 2413141d738be8144af7b56967ce44b4, type: 3}
    - time: 0.56
      value: {fileID: 21300000, guid: 4bac6d8825af00e438147d3a25e78333, type: 3}
    - time: 0.6
      value: {fileID: 21300000, guid: 298ecb371d28aab4b9c95aab4896cd14, type: 3}
    - time: 0.64
      value: {fileID: 21300000, guid: 99744d1ce49d816498c70f9f2e8e42fd, type: 3}
    - time: 0.68
      value: {fileID: 21300000, guid: 5f4f919696672254c83656a5fc649799, type: 3}
    - time: 0.72
      value: {fileID: 21300000, guid: 047193531b29bc2429dc23fc799fe9ee, type: 3}
    - time: 0.76
      value: {fileID: 21300000, guid: 5cc582e86741eff48a4c1e210465e2e5, type: 3}
    - time: 0.8
      value: {fileID: 21300000, guid: b08ef07fafdffec48b0ea72bc9bcd7c0, type: 3}
    - time: 0.84
      value: {fileID: 21300000, guid: d95766dad076a7d48b1680eb00e91189, type: 3}
    - time: 0.88
      value: {fileID: 21300000, guid: e4702f276379d614abc454271b64da1c, type: 3}
    - time: 0.92
      value: {fileID: 21300000, guid: f5226776e14e38c4899f8c355558007f, type: 3}
    - time: 0.96
      value: {fileID: 21300000, guid: f4f0b5f6d95f8fb46b9eab2d8efc264b, type: 3}
    - time: 1
      value: {fileID: 21300000, guid: 92c16cd56dd238642b09e0112850ca4c, type: 3}
    - time: 1.04
      value: {fileID: 21300000, guid: 1914b1dabfe39614dbd34838d7655968, type: 3}
    - time: 1.08
      value: {fileID: 21300000, guid: 3540096d5f9eb8b4598d307da6c83402, type: 3}
    - time: 1.12
      value: {fileID: 21300000, guid: 8819314ab67b3f74dbfa862dddc6901b, type: 3}
    - time: 1.16
      value: {fileID: 21300000, guid: 1f277272e4a505146b6f084e87f3a07f, type: 3}
    - time: 1.2
      value: {fileID: 21300000, guid: a6a8439dc94056a4dae5b73e1789f334, type: 3}
    - time: 1.24
      value: {fileID: 21300000, guid: d38b0e0af59a7c245a84b623591b34ea, type: 3}
    - time: 1.28
      value: {fileID: 21300000, guid: fb4a277842fc1be44a9dcbbcc54d4c5d, type: 3}
    - time: 1.32
      value: {fileID: 21300000, guid: dfd9e76963c8c9d408001b26bcc817d4, type: 3}
    - time: 1.36
      value: {fileID: 21300000, guid: 10995a113a7809e47914f27a27baef9b, type: 3}
    - time: 1.4
      value: {fileID: 21300000, guid: 06be9ab5169df8846aa665e03fef6e03, type: 3}
    - time: 1.44
      value: {fileID: 21300000, guid: 6b4d5f468f7126040bdc31c5221a7652, type: 3}
    - time: 1.48
      value: {fileID: 21300000, guid: d3106f3c9ada12d4ebe9ca3c92fe892a, type: 3}
    - time: 1.52
      value: {fileID: 21300000, guid: e86706c32667c2149bdad4c6a32cebdf, type: 3}
    - time: 1.56
      value: {fileID: 21300000, guid: 4b74a0ec51a1b8144b12c00f305fabf4, type: 3}
    - time: 1.6
      value: {fileID: 21300000, guid: 0b66f329251e4ab41864bc1add7a2833, type: 3}
    - time: 1.64
      value: {fileID: 21300000, guid: 374f9953d83468f4c8c44d6e31687c89, type: 3}
    - time: 1.68
      value: {fileID: 21300000, guid: 318a742414d64e94785711b198631a35, type: 3}
    - time: 1.72
      value: {fileID: 21300000, guid: 4d50b8be1b3190748b22096005ed932d, type: 3}
    - time: 1.76
      value: {fileID: 21300000, guid: 2121e5f69d0eb5048851132359e47d86, type: 3}
    - time: 1.8
      value: {fileID: 21300000, guid: 2e669ba31a154a54b80c920eec91fd45, type: 3}
    - time: 1.84
      value: {fileID: 21300000, guid: e067e996352acd740b7f6de8725d98d1, type: 3}
    - time: 1.88
      value: {fileID: 21300000, guid: 8c62135b1e2ff5b4bafd61fd060cd511, type: 3}
    - time: 1.92
      value: {fileID: 21300000, guid: 32c950e44e93635499ce090bd21a3f69, type: 3}
    - time: 1.96
      value: {fileID: 21300000, guid: 33a3b338f8c66f148ac5d0a8d28f4709, type: 3}
    attribute: m_Sprite
    path: 
    classID: 212
    script: {fileID: 0}
  m_SampleRate: 25
  m_WrapMode: 0
  m_Bounds:
    m_Center: {x: 0, y: 0, z: 0}
    m_Extent: {x: 0, y: 0, z: 0}
  m_ClipBindingConstant:
    genericBindings:
    - serializedVersion: 2
      path: 0
      attribute: 0
      script: {fileID: 0}
      typeID: 212
      customType: 23
      isPPtrCurve: 1
    pptrCurveMapping:
    - {fileID: 21300000, guid: 37cbdab326856d74c89a55dcface413e, type: 3}
    - {fileID: 21300000, guid: d5c89073830326b43a3f673fdd155598, type: 3}
    - {fileID: 21300000, guid: 070da193750c0f34c8f70712c8f73dc7, type: 3}
    - {fileID: 21300000, guid: 9611f6398dfb0424a9466ead2ce618f2, type: 3}
    - {fileID: 21300000, guid: 1a99e576f089de2409da23ce1d20f854, type: 3}
    - {fileID: 21300000, guid: 2831c98ae0ea1594d81306e5807153ff, type: 3}
    - {fileID: 21300000, guid: c51b4850d101e0349b3056f5f246e1dc, type: 3}
    - {fileID: 21300000, guid: 5748c6521e07b6448819c083f27f19ec, type: 3}
    - {fileID: 21300000, guid: 69f01720a443aa84d8c6c5e2bf74c73d, type: 3}
    - {fileID: 21300000, guid: 2caaeaa6db0f89d47b7591a374ca573b, type: 3}
    - {fileID: 21300000, guid: 7688d8e3fa7c3834fa04a7e5240133be, type: 3}
    - {fileID: 21300000, guid: 781bb1d4b47125049b6687aeb58f1fd4, type: 3}
    - {fileID: 21300000, guid: e30a70aae8ad56948b4334f47ef7dbbb, type: 3}
    - {fileID: 21300000, guid: 2413141d738be8144af7b56967ce44b4, type: 3}
    - {fileID: 21300000, guid: 4bac6d8825af00e438147d3a25e78333, type: 3}
    - {fileID: 21300000, guid: 298ecb371d28aab4b9c95aab4896cd14, type: 3}
    - {fileID: 21300000, guid: 99744d1ce49d816498c70f9f2e8e42fd, type: 3}
    - {fileID: 21300000, guid: 5f4f919696672254c83656a5fc649799, type: 3}
    - {fileID: 21300000, guid: 047193531b29bc2429dc23fc799fe9ee, type: 3}
    - {fileID: 21300000, guid: 5cc582e86741eff48a4c1e210465e2e5, type: 3}
    - {fileID: 21300000, guid: b08ef07fafdffec48b0ea72bc9bcd7c0, type: 3}
    - {fileID: 21300000, guid: d95766dad076a7d48b1680eb00e91189, type: 3}
    - {fileID: 21300000, guid: e4702f276379d614abc454271b64da1c, type: 3}
    - {fileID: 21300000, guid: f5226776e14e38c4899f8c355558007f, type: 3}
    - {fileID: 21300000, guid: f4f0b5f6d95f8fb46b9eab2d8efc264b, type: 3}
    - {fileID: 21300000, guid: 92c16cd56dd238642b09e0112850ca4c, type: 3}
    - {fileID: 21300000, guid: 1914b1dabfe39614dbd34838d7655968, type: 3}
    - {fileID: 21300000, guid: 3540096d5f9eb8b4598d307da6c83402, type: 3}
    - {fileID: 21300000, guid: 8819314ab67b3f74dbfa862dddc6901b, type: 3}
    - {fileID: 21300000, guid: 1f277272e4a505146b6f084e87f3a07f, type: 3}
    - {fileID: 21300000, guid: a6a8439dc94056a4dae5b73e1789f334, type: 3}
    - {fileID: 21300000, guid: d38b0e0af59a7c245a84b623591b34ea, type: 3}
    - {fileID: 21300000, guid: fb4a277842fc1be44a9dcbbcc54d4c5d, type: 3}
    - {fileID: 21300000, guid: dfd9e76963c8c9d408001b26bcc817d4, type: 3}
    - {fileID: 21300000, guid: 10995a113a7809e47914f27a27baef9b, type: 3}
    - {fileID: 21300000, guid: 06be9ab5169df8846aa665e03fef6e03, type: 3}
    - {fileID: 21300000, guid: 6b4d5f468f7126040bdc31c5221a7652, type: 3}
    - {fileID: 21300000, guid: d3106f3c9ada12d4ebe9ca3c92fe892a, type: 3}
    - {fileID: 21300000, guid: e86706c32667c2149bdad4c6a32cebdf, type: 3}
    - {fileID: 21300000, guid: 4b74a0ec51a1b8144b12c00f305fabf4, type: 3}
    - {fileID: 21300000, guid: 0b66f329251e4ab41864bc1add7a2833, type: 3}
    - {fileID: 21300000, guid: 374f9953d83468f4c8c44d6e31687c89, type: 3}
    - {fileID: 21300000, guid: 318a742414d64e94785711b198631a35, type: 3}
    - {fileID: 21300000, guid: 4d50b8be1b3190748b22096005ed932d, type: 3}
    - {fileID: 21300000, guid: 2121e5f69d0eb5048851132359e47d86, type: 3}
    - {fileID: 21300000, guid: 2e669ba31a154a54b80c920eec91fd45, type: 3}
    - {fileID: 21300000, guid: e067e996352acd740b7f6de8725d98d1, type: 3}
    - {fileID: 21300000, guid: 8c62135b1e2ff5b4bafd61fd060cd511, type: 3}
    - {fileID: 21300000, guid: 32c950e44e93635499ce090bd21a3f69, type: 3}
    - {fileID: 21300000, guid: 33a3b338f8c66f148ac5d0a8d28f4709, type: 3}
  m_AnimationClipSettings:
    serializedVersion: 2
    m_AdditiveReferencePoseClip: {fileID: 0}
    m_AdditiveReferencePoseTime: 0
    m_StartTime: 0
    m_StopTime: 2
    m_OrientationOffsetY: 0
    m_Level: 0
    m_CycleOffset: 0
    m_HasAdditiveReferencePose: 0
    m_LoopTime: 1
    m_LoopBlend: 0
    m_LoopBlendOrientation: 0
    m_LoopBlendPositionY: 0
    m_LoopBlendPositionXZ: 0
    m_KeepOriginalOrientation: 0
    m_KeepOriginalPositionY: 1
    m_KeepOriginalPositionXZ: 0
    m_HeightFromFeet: 0
    m_Mirror: 0
  m_EditorCurves: []
  m_EulerEditorCurves: []
  m_HasGenericRootTransform: 0
  m_HasMotionFloatCurves: 0
  m_Events: []
