%YAML 1.1
%TAG !u! tag:unity3d.com,2011:
--- !u!74 &7400000
AnimationClip:
  m_ObjectHideFlags: 0
  m_CorrespondingSourceObject: {fileID: 0}
  m_PrefabInstance: {fileID: 0}
  m_PrefabAsset: {fileID: 0}
  m_Name: C1_WaitForOrder_Impatient
  serializedVersion: 6
  m_Legacy: 0
  m_Compressed: 0
  m_UseHighQualityCurve: 1
  m_RotationCurves: []
  m_CompressedRotationCurves: []
  m_EulerCurves: []
  m_PositionCurves: []
  m_ScaleCurves: []
  m_FloatCurves: []
  m_PPtrCurves:
  - curve:
    - time: 0
      value: {fileID: 21300000, guid: 709031ee8e1a8ae4097f92790309c302, type: 3}
    - time: 0.04
      value: {fileID: 21300000, guid: 1b9f3fe611064ae4b8d64f80021a1031, type: 3}
    - time: 0.08
      value: {fileID: 21300000, guid: 0a7d5ba6621d00244951ffa3b13b4475, type: 3}
    - time: 0.12
      value: {fileID: 21300000, guid: c62352ef9409675468bc6938a64c3814, type: 3}
    - time: 0.16
      value: {fileID: 21300000, guid: d53a3db405afd744d979b242edee06dc, type: 3}
    - time: 0.2
      value: {fileID: 21300000, guid: e0658386d55cf8e47b75a732690795a7, type: 3}
    - time: 0.24
      value: {fileID: 21300000, guid: aa1b2309ed7c71146b2ac1b848aabbaa, type: 3}
    - time: 0.28
      value: {fileID: 21300000, guid: aada794c60f9bb842b8f9c30337adb78, type: 3}
    - time: 0.32
      value: {fileID: 21300000, guid: fbe2fcf1ef51d3f4db8072bb0a7c1c5c, type: 3}
    - time: 0.36
      value: {fileID: 21300000, guid: 4f3863df82c757e4baeadb7eeee57600, type: 3}
    - time: 0.4
      value: {fileID: 21300000, guid: 8fc94f25cadd6d34c8377b74b8c0ff6f, type: 3}
    - time: 0.44
      value: {fileID: 21300000, guid: 3a7ca613f036a54469c798f10c613da7, type: 3}
    - time: 0.48
      value: {fileID: 21300000, guid: ee9a44ce22ffa2049a05176156f6def0, type: 3}
    - time: 0.52
      value: {fileID: 21300000, guid: b113f1d65132958479706c4a3db57304, type: 3}
    - time: 0.56
      value: {fileID: 21300000, guid: bb97de79c86a7724582b30ecda5e3416, type: 3}
    - time: 0.6
      value: {fileID: 21300000, guid: aaaab84c3f7d9e94caf70f2f7a0fcc28, type: 3}
    - time: 0.64
      value: {fileID: 21300000, guid: 9513f2e02f4e77343a62f672524e083f, type: 3}
    - time: 0.68
      value: {fileID: 21300000, guid: e84d8c6d57bea014f956e058a23a1783, type: 3}
    - time: 0.72
      value: {fileID: 21300000, guid: 422cfb8ad86d5d148b855f277eaef590, type: 3}
    - time: 0.76
      value: {fileID: 21300000, guid: dbb09714c58db0a45982b283e8a4db54, type: 3}
    - time: 0.8
      value: {fileID: 21300000, guid: 290436ca082bd224290fad93bf2fae52, type: 3}
    - time: 0.84
      value: {fileID: 21300000, guid: f71c009d2e26eae4b9f2b61549aea532, type: 3}
    - time: 0.88
      value: {fileID: 21300000, guid: 9597688e1d665384897e3a77b27d5637, type: 3}
    - time: 0.92
      value: {fileID: 21300000, guid: 493ca1ddab5dea248b96500e1cc71ea8, type: 3}
    - time: 0.96
      value: {fileID: 21300000, guid: 8071650a5ebaa92499c2f60360884ef5, type: 3}
    - time: 1
      value: {fileID: 21300000, guid: 34da666acc6fbaf4abde7d22cd90368d, type: 3}
    - time: 1.04
      value: {fileID: 21300000, guid: 7193d3fbb3aaf5b45a6c1b173d87700f, type: 3}
    - time: 1.08
      value: {fileID: 21300000, guid: 6825cca2d7c5ca547b6cc74d4ecffc38, type: 3}
    - time: 1.12
      value: {fileID: 21300000, guid: da8471d982328a4459c6da387a709c44, type: 3}
    - time: 1.16
      value: {fileID: 21300000, guid: 2c44e72555d7d0a4e9d228f05892eedf, type: 3}
    - time: 1.2
      value: {fileID: 21300000, guid: 1ac55a905c554ff44aaa1b9582326578, type: 3}
    - time: 1.24
      value: {fileID: 21300000, guid: ced3343e71856b3468d7b66df44a7f25, type: 3}
    - time: 1.28
      value: {fileID: 21300000, guid: 18305fee0c9d0a9488c0594746beca90, type: 3}
    - time: 1.32
      value: {fileID: 21300000, guid: 1bb2b9e24d556534d957ef4bbd65f995, type: 3}
    - time: 1.36
      value: {fileID: 21300000, guid: 16c306a8ed3e62640908ee194c84b4a1, type: 3}
    - time: 1.4
      value: {fileID: 21300000, guid: a65c210e1c854b2478211ca8718dce55, type: 3}
    - time: 1.44
      value: {fileID: 21300000, guid: 9dd9577e9ba68e542bcba71c03a9c070, type: 3}
    - time: 1.48
      value: {fileID: 21300000, guid: 2eca49627a44ac343ba04bacd157439d, type: 3}
    - time: 1.52
      value: {fileID: 21300000, guid: 2b82b502aba6f5c4597b2b839da94cb9, type: 3}
    - time: 1.56
      value: {fileID: 21300000, guid: c1236bf988fac654aae4379bcb958964, type: 3}
    - time: 1.6
      value: {fileID: 21300000, guid: 9d3cd2aff4f56f04dacaba522c303c93, type: 3}
    - time: 1.64
      value: {fileID: 21300000, guid: cda8007c537948f438f88f622c0f3f0d, type: 3}
    - time: 1.68
      value: {fileID: 21300000, guid: afde9a2f3aee3524499ea3ac374faa80, type: 3}
    - time: 1.72
      value: {fileID: 21300000, guid: 03d0e425e7e1c7d4095c1a2f413ce0a1, type: 3}
    - time: 1.76
      value: {fileID: 21300000, guid: 17fe3b2977509ec439c7b7d5928cdd40, type: 3}
    - time: 1.8
      value: {fileID: 21300000, guid: 51ede5c2a3bb0fb41b12c6fa19929941, type: 3}
    - time: 1.84
      value: {fileID: 21300000, guid: 9b17968953b43e2478acbb6afc3b5b01, type: 3}
    - time: 1.88
      value: {fileID: 21300000, guid: aff3333b43e56d4438c46722e3f459fc, type: 3}
    - time: 1.92
      value: {fileID: 21300000, guid: 26ebed082b88e234aba96fabcfda57b8, type: 3}
    - time: 1.96
      value: {fileID: 21300000, guid: c9c64c66707685c46a5b6b9ba2c4bf70, type: 3}
    - time: 2
      value: {fileID: 21300000, guid: 2c5fd4078c6cdf547935441581db78e4, type: 3}
    - time: 2.04
      value: {fileID: 21300000, guid: 46375372bab66ef4bb2fad3532a1bcac, type: 3}
    - time: 2.08
      value: {fileID: 21300000, guid: 9a0c091712a357b40b049179aa32819b, type: 3}
    - time: 2.12
      value: {fileID: 21300000, guid: 9739d0164170bcc4da0c1df3ced4945b, type: 3}
    - time: 2.16
      value: {fileID: 21300000, guid: f2814730292164f4c851661e34de80a4, type: 3}
    - time: 2.2
      value: {fileID: 21300000, guid: 71fec78cafea79840bfb1e0c2638827b, type: 3}
    - time: 2.24
      value: {fileID: 21300000, guid: 7783a894eb9087942ac236adaf27a5de, type: 3}
    - time: 2.28
      value: {fileID: 21300000, guid: 0c55a21872d37224b8f1f61dfc51463d, type: 3}
    - time: 2.32
      value: {fileID: 21300000, guid: 335a4f8f751a5b64e93cfef8dfd4395f, type: 3}
    - time: 2.36
      value: {fileID: 21300000, guid: a9d6b40eb1b00cb4d992a2f3642c0201, type: 3}
    - time: 2.4
      value: {fileID: 21300000, guid: e080330ca7324df49ae4d40f5f8db37e, type: 3}
    - time: 2.44
      value: {fileID: 21300000, guid: 33ed336e6c133e0499c91405a8c60c7b, type: 3}
    - time: 2.48
      value: {fileID: 21300000, guid: da7998e0b9f61ee48b40d6e9e1a1cff6, type: 3}
    - time: 2.52
      value: {fileID: 21300000, guid: 058cf64b2e011fe458fc55841319e840, type: 3}
    - time: 2.56
      value: {fileID: 21300000, guid: 76233c379a6e7e343ba168aa8d16d1ba, type: 3}
    - time: 2.6
      value: {fileID: 21300000, guid: d2ce0b0fa272cc84981dc3f7af54a860, type: 3}
    - time: 2.64
      value: {fileID: 21300000, guid: 3d112054785d76e4ba90703200fe7c96, type: 3}
    - time: 2.68
      value: {fileID: 21300000, guid: 4f48aa6d40edb6b43815403469f7fa76, type: 3}
    - time: 2.72
      value: {fileID: 21300000, guid: e5b1351329f59874a903f7346d68afa6, type: 3}
    - time: 2.76
      value: {fileID: 21300000, guid: 2d7c8f5824c1fb14da9a74252ef27a1d, type: 3}
    - time: 2.8
      value: {fileID: 21300000, guid: bc5447424643ed24ab9c86f779ec8bb5, type: 3}
    - time: 2.84
      value: {fileID: 21300000, guid: a4a85f1970732904d8f77ef2a267f4c7, type: 3}
    - time: 2.88
      value: {fileID: 21300000, guid: af385f345a65ff04a83dc23c25adfc75, type: 3}
    - time: 2.92
      value: {fileID: 21300000, guid: 242c1c9b17b75654491392cdd78ea8cf, type: 3}
    - time: 2.96
      value: {fileID: 21300000, guid: addd95d19103c3349849ece24d83a14b, type: 3}
    - time: 3
      value: {fileID: 21300000, guid: d79acaac5bc41904b928e4abc8751233, type: 3}
    - time: 3.04
      value: {fileID: 21300000, guid: 2c6e20eb9c1c3a144b36ee1bdd61ad93, type: 3}
    - time: 3.08
      value: {fileID: 21300000, guid: 44b85e6632f6c7d45b8b174ae9d956c8, type: 3}
    - time: 3.12
      value: {fileID: 21300000, guid: 9e8cacf3497e65346ac9f2dee2f538a5, type: 3}
    - time: 3.16
      value: {fileID: 21300000, guid: fa416709da92525468dad7a9b948a806, type: 3}
    - time: 3.2
      value: {fileID: 21300000, guid: e3c5e97c76126f14c855ccc14ebb851d, type: 3}
    - time: 3.24
      value: {fileID: 21300000, guid: a9d10ddbfbda6f94a8c969c80663f544, type: 3}
    - time: 3.28
      value: {fileID: 21300000, guid: 1aaa5c75315eeb8418227d150e848503, type: 3}
    - time: 3.32
      value: {fileID: 21300000, guid: eae6551055f7940498416511cb355721, type: 3}
    - time: 3.36
      value: {fileID: 21300000, guid: 9fa97ad3ed3dd8447be7558d68d42aac, type: 3}
    - time: 3.4
      value: {fileID: 21300000, guid: 3cd652e4cd61d2b43b2357fd580967e1, type: 3}
    - time: 3.44
      value: {fileID: 21300000, guid: 0fd1214176caf934ca6ab673950cdc13, type: 3}
    - time: 3.48
      value: {fileID: 21300000, guid: b0c304b10a4e69e4ba90542217e1e63c, type: 3}
    - time: 3.52
      value: {fileID: 21300000, guid: 3494f3e4bd6c57542a1f38e2d6fe3b05, type: 3}
    - time: 3.56
      value: {fileID: 21300000, guid: 35426584b4251364f867f0ce968bb362, type: 3}
    - time: 3.6
      value: {fileID: 21300000, guid: 52ab2a18cc0fb2b43849dffdc474a90e, type: 3}
    - time: 3.64
      value: {fileID: 21300000, guid: f41ef214956e96b4f8eba5cfd5b3685d, type: 3}
    - time: 3.68
      value: {fileID: 21300000, guid: ec67911bc718b094da7935cd89a8dd66, type: 3}
    - time: 3.72
      value: {fileID: 21300000, guid: 60923b6f299e551408842334c9b87a0e, type: 3}
    - time: 3.76
      value: {fileID: 21300000, guid: 65920b7d91303344bb8a606e270431a5, type: 3}
    - time: 3.8
      value: {fileID: 21300000, guid: 83cd2698e419a1346b21755c1e745899, type: 3}
    - time: 3.84
      value: {fileID: 21300000, guid: 80f7a2a1a9b26974d8e42f124e68e96e, type: 3}
    - time: 3.88
      value: {fileID: 21300000, guid: 9da4a7f2bca9914498f133b882746409, type: 3}
    - time: 3.92
      value: {fileID: 21300000, guid: 3c832f4ae2f330a42a92fa28d215cfe4, type: 3}
    - time: 3.96
      value: {fileID: 21300000, guid: 625ea3f65fea08e429a332f583bb8875, type: 3}
    attribute: m_Sprite
    path: 
    classID: 212
    script: {fileID: 0}
  m_SampleRate: 25
  m_WrapMode: 0
  m_Bounds:
    m_Center: {x: 0, y: 0, z: 0}
    m_Extent: {x: 0, y: 0, z: 0}
  m_ClipBindingConstant:
    genericBindings:
    - serializedVersion: 2
      path: 0
      attribute: 0
      script: {fileID: 0}
      typeID: 212
      customType: 23
      isPPtrCurve: 1
    pptrCurveMapping:
    - {fileID: 21300000, guid: 709031ee8e1a8ae4097f92790309c302, type: 3}
    - {fileID: 21300000, guid: 1b9f3fe611064ae4b8d64f80021a1031, type: 3}
    - {fileID: 21300000, guid: 0a7d5ba6621d00244951ffa3b13b4475, type: 3}
    - {fileID: 21300000, guid: c62352ef9409675468bc6938a64c3814, type: 3}
    - {fileID: 21300000, guid: d53a3db405afd744d979b242edee06dc, type: 3}
    - {fileID: 21300000, guid: e0658386d55cf8e47b75a732690795a7, type: 3}
    - {fileID: 21300000, guid: aa1b2309ed7c71146b2ac1b848aabbaa, type: 3}
    - {fileID: 21300000, guid: aada794c60f9bb842b8f9c30337adb78, type: 3}
    - {fileID: 21300000, guid: fbe2fcf1ef51d3f4db8072bb0a7c1c5c, type: 3}
    - {fileID: 21300000, guid: 4f3863df82c757e4baeadb7eeee57600, type: 3}
    - {fileID: 21300000, guid: 8fc94f25cadd6d34c8377b74b8c0ff6f, type: 3}
    - {fileID: 21300000, guid: 3a7ca613f036a54469c798f10c613da7, type: 3}
    - {fileID: 21300000, guid: ee9a44ce22ffa2049a05176156f6def0, type: 3}
    - {fileID: 21300000, guid: b113f1d65132958479706c4a3db57304, type: 3}
    - {fileID: 21300000, guid: bb97de79c86a7724582b30ecda5e3416, type: 3}
    - {fileID: 21300000, guid: aaaab84c3f7d9e94caf70f2f7a0fcc28, type: 3}
    - {fileID: 21300000, guid: 9513f2e02f4e77343a62f672524e083f, type: 3}
    - {fileID: 21300000, guid: e84d8c6d57bea014f956e058a23a1783, type: 3}
    - {fileID: 21300000, guid: 422cfb8ad86d5d148b855f277eaef590, type: 3}
    - {fileID: 21300000, guid: dbb09714c58db0a45982b283e8a4db54, type: 3}
    - {fileID: 21300000, guid: 290436ca082bd224290fad93bf2fae52, type: 3}
    - {fileID: 21300000, guid: f71c009d2e26eae4b9f2b61549aea532, type: 3}
    - {fileID: 21300000, guid: 9597688e1d665384897e3a77b27d5637, type: 3}
    - {fileID: 21300000, guid: 493ca1ddab5dea248b96500e1cc71ea8, type: 3}
    - {fileID: 21300000, guid: 8071650a5ebaa92499c2f60360884ef5, type: 3}
    - {fileID: 21300000, guid: 34da666acc6fbaf4abde7d22cd90368d, type: 3}
    - {fileID: 21300000, guid: 7193d3fbb3aaf5b45a6c1b173d87700f, type: 3}
    - {fileID: 21300000, guid: 6825cca2d7c5ca547b6cc74d4ecffc38, type: 3}
    - {fileID: 21300000, guid: da8471d982328a4459c6da387a709c44, type: 3}
    - {fileID: 21300000, guid: 2c44e72555d7d0a4e9d228f05892eedf, type: 3}
    - {fileID: 21300000, guid: 1ac55a905c554ff44aaa1b9582326578, type: 3}
    - {fileID: 21300000, guid: ced3343e71856b3468d7b66df44a7f25, type: 3}
    - {fileID: 21300000, guid: 18305fee0c9d0a9488c0594746beca90, type: 3}
    - {fileID: 21300000, guid: 1bb2b9e24d556534d957ef4bbd65f995, type: 3}
    - {fileID: 21300000, guid: 16c306a8ed3e62640908ee194c84b4a1, type: 3}
    - {fileID: 21300000, guid: a65c210e1c854b2478211ca8718dce55, type: 3}
    - {fileID: 21300000, guid: 9dd9577e9ba68e542bcba71c03a9c070, type: 3}
    - {fileID: 21300000, guid: 2eca49627a44ac343ba04bacd157439d, type: 3}
    - {fileID: 21300000, guid: 2b82b502aba6f5c4597b2b839da94cb9, type: 3}
    - {fileID: 21300000, guid: c1236bf988fac654aae4379bcb958964, type: 3}
    - {fileID: 21300000, guid: 9d3cd2aff4f56f04dacaba522c303c93, type: 3}
    - {fileID: 21300000, guid: cda8007c537948f438f88f622c0f3f0d, type: 3}
    - {fileID: 21300000, guid: afde9a2f3aee3524499ea3ac374faa80, type: 3}
    - {fileID: 21300000, guid: 03d0e425e7e1c7d4095c1a2f413ce0a1, type: 3}
    - {fileID: 21300000, guid: 17fe3b2977509ec439c7b7d5928cdd40, type: 3}
    - {fileID: 21300000, guid: 51ede5c2a3bb0fb41b12c6fa19929941, type: 3}
    - {fileID: 21300000, guid: 9b17968953b43e2478acbb6afc3b5b01, type: 3}
    - {fileID: 21300000, guid: aff3333b43e56d4438c46722e3f459fc, type: 3}
    - {fileID: 21300000, guid: 26ebed082b88e234aba96fabcfda57b8, type: 3}
    - {fileID: 21300000, guid: c9c64c66707685c46a5b6b9ba2c4bf70, type: 3}
    - {fileID: 21300000, guid: 2c5fd4078c6cdf547935441581db78e4, type: 3}
    - {fileID: 21300000, guid: 46375372bab66ef4bb2fad3532a1bcac, type: 3}
    - {fileID: 21300000, guid: 9a0c091712a357b40b049179aa32819b, type: 3}
    - {fileID: 21300000, guid: 9739d0164170bcc4da0c1df3ced4945b, type: 3}
    - {fileID: 21300000, guid: f2814730292164f4c851661e34de80a4, type: 3}
    - {fileID: 21300000, guid: 71fec78cafea79840bfb1e0c2638827b, type: 3}
    - {fileID: 21300000, guid: 7783a894eb9087942ac236adaf27a5de, type: 3}
    - {fileID: 21300000, guid: 0c55a21872d37224b8f1f61dfc51463d, type: 3}
    - {fileID: 21300000, guid: 335a4f8f751a5b64e93cfef8dfd4395f, type: 3}
    - {fileID: 21300000, guid: a9d6b40eb1b00cb4d992a2f3642c0201, type: 3}
    - {fileID: 21300000, guid: e080330ca7324df49ae4d40f5f8db37e, type: 3}
    - {fileID: 21300000, guid: 33ed336e6c133e0499c91405a8c60c7b, type: 3}
    - {fileID: 21300000, guid: da7998e0b9f61ee48b40d6e9e1a1cff6, type: 3}
    - {fileID: 21300000, guid: 058cf64b2e011fe458fc55841319e840, type: 3}
    - {fileID: 21300000, guid: 76233c379a6e7e343ba168aa8d16d1ba, type: 3}
    - {fileID: 21300000, guid: d2ce0b0fa272cc84981dc3f7af54a860, type: 3}
    - {fileID: 21300000, guid: 3d112054785d76e4ba90703200fe7c96, type: 3}
    - {fileID: 21300000, guid: 4f48aa6d40edb6b43815403469f7fa76, type: 3}
    - {fileID: 21300000, guid: e5b1351329f59874a903f7346d68afa6, type: 3}
    - {fileID: 21300000, guid: 2d7c8f5824c1fb14da9a74252ef27a1d, type: 3}
    - {fileID: 21300000, guid: bc5447424643ed24ab9c86f779ec8bb5, type: 3}
    - {fileID: 21300000, guid: a4a85f1970732904d8f77ef2a267f4c7, type: 3}
    - {fileID: 21300000, guid: af385f345a65ff04a83dc23c25adfc75, type: 3}
    - {fileID: 21300000, guid: 242c1c9b17b75654491392cdd78ea8cf, type: 3}
    - {fileID: 21300000, guid: addd95d19103c3349849ece24d83a14b, type: 3}
    - {fileID: 21300000, guid: d79acaac5bc41904b928e4abc8751233, type: 3}
    - {fileID: 21300000, guid: 2c6e20eb9c1c3a144b36ee1bdd61ad93, type: 3}
    - {fileID: 21300000, guid: 44b85e6632f6c7d45b8b174ae9d956c8, type: 3}
    - {fileID: 21300000, guid: 9e8cacf3497e65346ac9f2dee2f538a5, type: 3}
    - {fileID: 21300000, guid: fa416709da92525468dad7a9b948a806, type: 3}
    - {fileID: 21300000, guid: e3c5e97c76126f14c855ccc14ebb851d, type: 3}
    - {fileID: 21300000, guid: a9d10ddbfbda6f94a8c969c80663f544, type: 3}
    - {fileID: 21300000, guid: 1aaa5c75315eeb8418227d150e848503, type: 3}
    - {fileID: 21300000, guid: eae6551055f7940498416511cb355721, type: 3}
    - {fileID: 21300000, guid: 9fa97ad3ed3dd8447be7558d68d42aac, type: 3}
    - {fileID: 21300000, guid: 3cd652e4cd61d2b43b2357fd580967e1, type: 3}
    - {fileID: 21300000, guid: 0fd1214176caf934ca6ab673950cdc13, type: 3}
    - {fileID: 21300000, guid: b0c304b10a4e69e4ba90542217e1e63c, type: 3}
    - {fileID: 21300000, guid: 3494f3e4bd6c57542a1f38e2d6fe3b05, type: 3}
    - {fileID: 21300000, guid: 35426584b4251364f867f0ce968bb362, type: 3}
    - {fileID: 21300000, guid: 52ab2a18cc0fb2b43849dffdc474a90e, type: 3}
    - {fileID: 21300000, guid: f41ef214956e96b4f8eba5cfd5b3685d, type: 3}
    - {fileID: 21300000, guid: ec67911bc718b094da7935cd89a8dd66, type: 3}
    - {fileID: 21300000, guid: 60923b6f299e551408842334c9b87a0e, type: 3}
    - {fileID: 21300000, guid: 65920b7d91303344bb8a606e270431a5, type: 3}
    - {fileID: 21300000, guid: 83cd2698e419a1346b21755c1e745899, type: 3}
    - {fileID: 21300000, guid: 80f7a2a1a9b26974d8e42f124e68e96e, type: 3}
    - {fileID: 21300000, guid: 9da4a7f2bca9914498f133b882746409, type: 3}
    - {fileID: 21300000, guid: 3c832f4ae2f330a42a92fa28d215cfe4, type: 3}
    - {fileID: 21300000, guid: 625ea3f65fea08e429a332f583bb8875, type: 3}
  m_AnimationClipSettings:
    serializedVersion: 2
    m_AdditiveReferencePoseClip: {fileID: 0}
    m_AdditiveReferencePoseTime: 0
    m_StartTime: 0
    m_StopTime: 4
    m_OrientationOffsetY: 0
    m_Level: 0
    m_CycleOffset: 0
    m_HasAdditiveReferencePose: 0
    m_LoopTime: 1
    m_LoopBlend: 0
    m_LoopBlendOrientation: 0
    m_LoopBlendPositionY: 0
    m_LoopBlendPositionXZ: 0
    m_KeepOriginalOrientation: 0
    m_KeepOriginalPositionY: 1
    m_KeepOriginalPositionXZ: 0
    m_HeightFromFeet: 0
    m_Mirror: 0
  m_EditorCurves: []
  m_EulerEditorCurves: []
  m_HasGenericRootTransform: 0
  m_HasMotionFloatCurves: 0
  m_Events: []
