%YAML 1.1
%TAG !u! tag:unity3d.com,2011:
--- !u!1045 &1
EditorBuildSettings:
  m_ObjectHideFlags: 0
  serializedVersion: 2
  m_Scenes:
  - enabled: 1
    path: Assets/Scenes/S_TitleScreen.unity
    guid: 4117df3b816c0cd4996a8b264aa64c26
  - enabled: 1
    path: Assets/Scenes/S_ULScene.unity
    guid: bfe7c515400dc274b97bce7674a7e1fa
  - enabled: 1
    path: Assets/Scenes/Levels/Level_1.unity
    guid: 5de42b4a4ee6029439073e879a867998
  m_configObjects: {}
