%YAML 1.1
%TAG !u! tag:unity3d.com,2011:
--- !u!162 &1
EditorUserSettings:
  m_ObjectHideFlags: 0
  serializedVersion: 4
  m_ConfigSettings:
    RecentlyUsedScenePath-0:
      value: 2242470311464677080f021607265a1e5932002b21382a353e663c21e1e83d2ee7e379c6eb3e18091027f73d092e0d3ae1293a45e305031f08
      flags: 0
    RecentlyUsedScenePath-1:
      value: 2242470311464677080f021607265a1e5932002b21382a353e662e30e7ee312badd737fdef092f30300cea190a3a0d3ae119471ef8021e12
      flags: 0
    RecentlyUsedScenePath-2:
      value: 2242470311464677080f021607265a1e5932002b21382a353e662e30e7ee312badcb39eee81936323c0fee280d3d4f2afc031d12
      flags: 0
    RecentlyUsedScenePath-3:
      value: 22424703114646680e0b0227036c6c111b07142f1f2b233e2867083debf42d
      flags: 0
    RecentlyUsedScenePath-4:
      value: 22424703114646680e0b0227036c6c2f34020a2d293a191d2c20137df7ee3d2cfb
      flags: 0
    RecentlyUsedScenePath-5:
      value: 22424703114646680e0b0227036c6c2f3b1611241f2b233e2867083debf42d
      flags: 0
    RecentlyUsedScenePath-6:
      value: 22424703114646680e0b0227036c6c2f233b2b292926237e38271427fb
      flags: 0
    RecentlyUsedScenePath-7:
      value: 22424703114646680e0b0227036c6c2f221e0c26291b2522282c137df7ee3d2cfb
      flags: 0
    RecentlyUsedScenePath-8:
      value: 22424703114646680e0b0227036c6c2f34020a2d293a191d2c201300e1e53a3dacf238e0f323
      flags: 0
    RecentlyUsedScenePath-9:
      value: 22424703114646680e0b0227036c7315001214396304232628252262acf53a31f6fe
      flags: 0
    vcSharedLogLevel:
      value: 0d5e400f0650
      flags: 0
  m_VCAutomaticAdd: 1
  m_VCDebugCom: 0
  m_VCDebugCmd: 0
  m_VCDebugOut: 0
  m_SemanticMergeMode: 2
  m_VCShowFailedCheckout: 1
  m_VCOverwriteFailedCheckoutAssets: 1
  m_VCProjectOverlayIcons: 1
  m_VCHierarchyOverlayIcons: 1
  m_VCOtherOverlayIcons: 1
  m_VCAllowAsyncUpdate: 1
